{
  "horizon_header": {
    "active": true,
    "title": "ORCID: La plataforma digital que apoya la investigación",
    "excerpt": "Crear un Perfil ORCID y vincularlo con el Repositorio UC fomenta la visibilidad de la producción académica y de investigación.",
    "image": "assets/img/destacados.jpg",
    "tag": {
      "text": "Destacados",
      "title": "Destacados",
      "url": "/content/destacados"
    },
    "section_breadcrumbs": {
      "active": true,
      "breadcrumbs": [
        {
          "text": "Inicio",
          "title": "Inicio",
          "url": "/"
        },
        {
          "text": "Novedades",
          "title": "Novedades",
          "url": "/content/destacados"
        },
        {
          "text": "Destacados",
          "title": "Destacados",
          "url": "/content/destacados"
        }
      ]
    }
  },
  "horizon_contents": [
    {
      "active": true,
      "type": "text",
      "title": "",
      "content": "Open Researcher and Contributor ID (ORCID) es una plataforma digital gratuita e internacional de acceso abierto que ofrece un sistema de registro central para toda la producción que los investigadores tengan en distintas bases de datos. <br><br>A través de un número identificador de 16 dígitos, similar a un número de cédula de identidad o pasaporte, ORCID entrega una buena alternativa de “desambiguación” de nombres para el mundo científico y permite a los usuarios pertenecer a una amplia comunidad conformada por investigadores, universidades, laboratorios, organizaciones de investigación comercial, financiadores del área, editores, agencias, depósitos de datos y asociaciones de profesionales internacionales."
    },
    {
      "active": true,
      "type": "image",
      "title": "",
      "content": "https://mcusercontent.com/43aecb2da99dc8cbbb106788c/images/f4f821ee-c2cb-4a5d-9719-38808bea15c3.png"
    },
    {
      "active": true,
      "type": "text",
      "title": "",
      "content": "El registro de los trabajos se agrupan en un “Perfil ORCID”, similar a un perfil de LinkedIn, que cada usuario puede actualizar con sus datos, actividades y producciones."
    },
    {
      "active": true,
      "type": "quote_bordered",
      "title": "",
      "content": "Hoy en día la investigación ya no sólo se mueve en el marco de suscripciones a revistas. La era tecnológica y digital abrió la puerta para que cada investigador sea su propia revista. Tener un perfil ORCID ayuda a que la producción de los académicos UC sea visible, esté unificada y que sus nombres estén fielmente identificados”, explica sobre esta plataforma Paola Santander, quien coordina el área de investigación y publicación en Bibliotecas UC"
    },
    {
      "active": false,
      "type": "list_normal",
      "title": "",
      "content": [
        {
          "text": "Lorem ipsum dolor sit amet, consectetur adipisicing elit."
        },
        {
          "text": "Lorem ipsum dolor sit amet, consectetuer adipiscing elit. Aenean commodo ligula eget dolor. Aenean massa. Cum sociis natoque penatibus et magnis dis parturient montes, nascetur ridiculus mus."
        },
        {
          "text": "Lorem ipsum dolor sit amet, consectetur adipisicing elit."
        },
        {
          "text": "Lorem ipsum dolor sit amet, consectetuer adipiscing elit. Aenean commodo ligula eget dolor. Aenean massa. Cum sociis natoque penatibus et magnis dis parturient montes, nascetur ridiculus mus."
        },
        {
          "text": "Lorem ipsum dolor sit amet, consectetuer adipiscing elit. Aenean commodo ligula eget dolor. Aenean massa. Cum sociis natoque penatibus et magnis dis parturient montes, nascetur ridiculus mus."
        },
        {
          "text": "Lorem ipsum dolor sit amet, consectetur adipisicing elit."
        }
      ]
    },
    {
      "active": false,
      "type": "quote",
      "title": "",
      "content": "Hemos estado más veces en la Luna o en la montaña más alta del planeta, que en la parte más profunda del océano, donde hemos llegado muy pocas ocasiones"
    },
    {
      "active": false,
      "type": "video",
      "title": "",
      "content": "http://techslides.com/demos/sample-videos/small.mp4"
    },
    {
      "active": true,
      "type": "image",
      "title": "",
      "content": "https://mcusercontent.com/43aecb2da99dc8cbbb106788c/images/007a14d5-75db-4de3-837e-aeed0c04f7e9.jpg"
    },
    {
      "active": true,
      "type": "text",
      "title": "Vinculación con Repositorio",
      "content": "La Pontificia Universidad Católica de Chile es la única institución en Chile que ha suscrito una asociación con ORCID. Esta alianza permite  que -previa autorización del usuario- toda la información que los usuarios ingresen a su perfil ORCID, sea visualizada también en el Repositorio UC, aumentando así la visibilización de los trabajos de nuestros investigadores y académicos. Para crear y/o vincular la cuenta ORCID con el Repositorio UC, <a href='https://servicios.bibliotecas.uc.cl/orcid/prod/' target='_blank'>ingresar aquí.</a>"
    },
    {
      "active": true,
      "type": "image",
      "title": "",
      "content": "https://mcusercontent.com/43aecb2da99dc8cbbb106788c/images/d5fa5662-0cf2-4b38-83da-d889a0bffbc8.jpg"
    },
    {
      "active": true,
      "type": "text",
      "title": "Apoyo de Bibliotecas UC ",
      "content": "Las principales editoriales científico-académicas como Nature, Taylor & Francis o Wiley, los investigadores más connotados que lideran la producción en base de datos y las universidades más importantes del mundo, están en ORCID. En Chile, este perfil ya facilita los procesos de acreditación y postulación de proyectos en agencias financiadoras como Fondecyt y, es por eso, que la UC está incentivando su uso, solicitando incluso la creación de la cuenta para concursos de la Vicerrectoría de Investigación. <br><br> Bibliotecas UC ofrece apoyo para crear los perfiles, vincularlos al Repositorio UC y utilizar la plataforma de la manera más óptima. Durante todo el año se imparte el taller gratuito “Creación de Perfil para Investigador en ORCID” (disponible actualmente en formato online).   <a href='https://guiastematicas.bibliotecas.uc.cl/aprende' target='_blank'>Más información aquí.</a>"
    },
    {
      "active": true,
      "type": "Noticias_Destacadas",
      "title": "Noticias Destacadas",
      "content": "Lorem ipsum dolor sit amet, consectetuer adipiscing elit. Aenean commodo ligula eget dolor. Aenean massa. Cum sociis natoque penatibus et magnis dis parturient montes, nascetur ridiculus mus. Donec quam felis, ultricies nec, pellentesque eu, pretium quis, sem. Nulla consequat massa quis enim. Donec pede justo, fringilla vel, aliquet nec, vulputate eget, arcu. In enim justo, rhoncus ut, imperdiet a, venenatis vitae, justo. Nullam dictum felis eu pede mollis pretium. Integer tincidunt."
    },
    {
      "active": true,
      "type": "list_links",
      "title": "Artículos Destacados",
      "content": [
        {
          "icon": "open_in_new",
          "text": "Body adiposity index in assessing the risk of type 2 diabetes mellitus development: the Baependi Heart Study",
          "title": "Body adiposity index in assessing the risk of type 2 diabetes mellitus development: the Baependi Heart Study",
          "url": "https://repositorio.uc.cl/handle/11534/26605"
        },
        {
          "icon": "open_in_new",
          "text": "Breeding strategies of open-cup-nesting birds in sub-Antarctic forests of Navarino Island, Chile",
          "title": "Breeding strategies of open-cup-nesting birds in sub-Antarctic forests of Navarino Island, Chile",
          "url": "https://repositorio.uc.cl/handle/11534/26612"
        },
        {
          "icon": "open_in_new",
          "text": "Ethnic disparities in cardiac transplantation: opportunities to improve long-term outcomes in all cardiac transplant recipients",
          "title": "Ethnic disparities in cardiac transplantation: opportunities to improve long-term outcomes in all cardiac transplant recipients",
          "url": "https://repositorio.uc.cl/handle/11534/26676"
        },
        {
          "icon": "open_in_new",
          "text": "Evaluation of the impact of shigellosis exclusion policies in childcare settings upon detection of a shigellosis outbreak",
          "title": "Evaluation of the impact of shigellosis exclusion policies in childcare settings upon detection of a shigellosis outbreak",
          "url": "https://repositorio.uc.cl/handle/11534/26679"
        }
      ]
    },
    {
      "active": false,
      "type": "list_links",
      "title": "Recursos UC",
      "content": [
        {
          "icon": "open_in_new",
          "text": "Apollo",
          "title": "Link",
          "url": "#"
        },
        {
          "icon": "open_in_new",
          "text": "Repositorio Universidad de Chile",
          "title": "Link",
          "url": "#"
        },
        {
          "icon": "open_in_new",
          "text": "Academia.edu",
          "title": "Link",
          "url": "#"
        },
        {
          "icon": "open_in_new",
          "text": "Link a otro sitio",
          "title": "Link",
          "url": "#"
        },
        {
          "icon": "open_in_new",
          "text": "Link del link a otro sitio",
          "title": "Link",
          "url": "#"
        },
        {
          "icon": "open_in_new",
          "text": "Link a otro sitio",
          "title": "Link",
          "url": "#"
        }
      ]
    },
    {
      "active": false,
      "type": "table",
      "title": "",
      "content": {
        "columns": ["Hora", "Sección"],
        "rows": [
          {
            "hora": "9:00 - 9:30",
            "seccion": "Lorem ipsum dolor sit amet, consectetur adipiscing elit."
          },
          {
            "hora": "9:00 - 9:30",
            "seccion": "Lorem ipsum dolor sit amet, consectetur adipiscing elit. Integer ut justo non eros convallis rhoncus. Nunc sit amet cursus felis. Aliquam ultricies lacus ut mollis placerat."
          },
          {
            "hora": "9:00 - 9:30",
            "seccion": "Lorem ipsum dolor sit amet, consectetur adipiscing elit."
          },
          {
            "hora": "9:00 - 9:30",
            "seccion": "Lorem ipsum dolor sit amet, consectetur adipiscing elit. Integer ut justo non eros convallis rhoncus. Nunc sit amet cursus felis. Aliquam ultricies lacus ut mollis placerat."
          }
        ]
      }
    },
    {
      "active": false,
      "type": "map",
      "title": "Vista de mapa",
      "content": {
        "direccion": "Direccion",
        "lat": -33.4295733,
        "lon": -70.6211627
      }
    },
    {
      "active": false,
      "type": "registros",
      "title": "Últimos 10",
      "content": ""
    }
  ]
}
