{
  "horizon_header": {
    "active": true,
    "title": "Políticas de Privacidad",
    "excerpt": "",
    "image": "assets/img/privacidad.jpg",
    "tag": {
      "text": "¿Qué es el Repositorio?",
      "title": "¿Qué es el Repositorio?",
      "url": ""
    },
    "section_breadcrumbs": {
      "active": true,
      "breadcrumbs": [
        {
          "text": "Inicio",
          "title": "Inicio",
          "url": "/"
        },
        {
          "text": "Que es el repositorio",
          "title": "Que es el repositorio",
          "url": "/portada/que-es-repositorio"
        },
        {
          "text": "Políticas de Privacidad",
          "title": "Políticas de Privacidad",
          "url": "/content/politicas-de-privacidad"
        }
      ]
    }
  },
  "horizon_contents": [
    {
      "active": true,
      "type": "text",
      "title": "General",
      "content": "Al acceder al sitio www.uc.cl el usuario esta aceptando y reconoce que ha revisado y esta de acuerdo con su Política de Privacidad.</p> <p>La Universidad Católica se reserva el derecho a modificar la presente política de privacidad y será responsabilidad del usuario la lectura y acatamiento de esta cada vez que ingrese al sitio.</p>"
    },
    {
      "active": true,
      "type": "text",
      "title": "Acceso a la Información",
      "content": "<p>Los contenidos del sitio www.uc.cl tienen carácter gratuito para los usuarios, sin embargo hay información que está limitada para miembros de la comunidad UC.</p> <p>Para acceder a ellos los usuarios miembros de la comunidad podrán acceder con los nombres de usuario y claves que les correspondan en su calidad de miembros.</p>"
    },
    {
      "active": false,
      "type": "image",
      "title": "",
      "content": "https://picsum.photos/1600/900"
    },
    {
      "active": true,
      "type": "text",
      "title": "Información de los usuarios",
      "content": "La Pontificia Universidad Católica de Chile recopila datos de los suscriptores, usuarios y/o visitantes que hagan uso de este portal. Esto puede ser a través de procesos informáticos para realizar registros de actividades (patrones de actividad, navegación y audiencia). Para ellos no será necesaria la identificación personal de usuarios y/o visitantes. <p>También podrán ser requeridos expresamente datos de usuarios o visitantes del sitio www.uc.cl. La entrega de esta información será voluntaria y se indicará claramente el fin para el cual está siendo solicitada.</p> <p>La Pontificia Universidad Católica de Chile no hace uso comercial de la información recopilada de los usuarios.</p> <p>Información a terceros</p> <p>La Pontificia Universidad Católica de Chile no comunicará ni transferirá a terceros los datos personales de sus usuarios sin el consentimiento expreso del titular. No obstante lo anterior, en caso de ser requerido judicialmente se hará entrega de la información solicitada.</p>"
    },
    {
      "active": false,
      "type": "quote_bordered",
      "title": "",
      "content": "Hemos estado más veces en la Luna o en la montaña más alta del planeta, que en la parte más profunda del océano, donde hemos llegado muy pocas ocasiones"
    },
    {
      "active": false,
      "type": "list_normal",
      "title": "",
      "content": [
        {
          "text": "Lorem ipsum dolor sit amet, consectetur adipisicing elit."
        },
        {
          "text": "Lorem ipsum dolor sit amet, consectetuer adipiscing elit. Aenean commodo ligula eget dolor. Aenean massa. Cum sociis natoque penatibus et magnis dis parturient montes, nascetur ridiculus mus."
        },
        {
          "text": "Lorem ipsum dolor sit amet, consectetur adipisicing elit."
        },
        {
          "text": "Lorem ipsum dolor sit amet, consectetuer adipiscing elit. Aenean commodo ligula eget dolor. Aenean massa. Cum sociis natoque penatibus et magnis dis parturient montes, nascetur ridiculus mus."
        },
        {
          "text": "Lorem ipsum dolor sit amet, consectetuer adipiscing elit. Aenean commodo ligula eget dolor. Aenean massa. Cum sociis natoque penatibus et magnis dis parturient montes, nascetur ridiculus mus."
        },
        {
          "text": "Lorem ipsum dolor sit amet, consectetur adipisicing elit."
        }
      ]
    },
    {
      "active": false,
      "type": "quote",
      "title": "",
      "content": "Hemos estado más veces en la Luna o en la montaña más alta del planeta, que en la parte más profunda del océano, donde hemos llegado muy pocas ocasiones"
    },
    {
      "active": false,
      "type": "video",
      "title": "",
      "content": "http://techslides.com/demos/sample-videos/small.mp4"
    },
    {
      "active": true,
      "type": "text",
      "title": "Uso de la información",
      "content": "<p>Todos los derechos referidos a www.uc.cl y sus contenidos, incluidos los de propiedad intelectual, pertenecen a la Pontificia Universidad Católica de Chile.</p> <p>Al acceder al sitio, el visitante tendrá derecho a revisar toda la información que esté disponible en él, sólo pudiendo utilizarla para fines particulares y no comerciales. Sin perjuicio de lo anterior, la universidad no se hace responsable por la veracidad o exactitud de la información contenida en los enlaces a otros sitios Web o que haya sido entregada por terceros.</p> <p>La Pontificia Universidad Católica de Chile autoriza la utilización o reproducción total o parcial de los contenidos e información de su portal, indicando claramente su fuente u origen.</p>"
    },
    {
      "active": false,
      "type": "list_links",
      "title": "Otros repositorios",
      "content": [
        {
          "icon": "open_in_new",
          "text": "Apollo",
          "title": "Link",
          "url": "#"
        },
        {
          "icon": "open_in_new",
          "text": "Repositorio Universidad de Chile",
          "title": "Link",
          "url": "#"
        },
        {
          "icon": "open_in_new",
          "text": "Academia.edu",
          "title": "Link",
          "url": "#"
        },
        {
          "icon": "open_in_new",
          "text": "Link a otro sitio",
          "title": "Link",
          "url": "#"
        },
        {
          "icon": "open_in_new",
          "text": "Link del link a otro sitio",
          "title": "Link",
          "url": "#"
        },
        {
          "icon": "open_in_new",
          "text": "Link a otro sitio",
          "title": "Link",
          "url": "#"
        }
      ]
    },
    {
      "active": false,
      "type": "list_links",
      "title": "Recursos UC",
      "content": [
        {
          "icon": "open_in_new",
          "text": "Apollo",
          "title": "Link",
          "url": "#"
        },
        {
          "icon": "open_in_new",
          "text": "Repositorio Universidad de Chile",
          "title": "Link",
          "url": "#"
        },
        {
          "icon": "open_in_new",
          "text": "Academia.edu",
          "title": "Link",
          "url": "#"
        },
        {
          "icon": "open_in_new",
          "text": "Link a otro sitio",
          "title": "Link",
          "url": "#"
        },
        {
          "icon": "open_in_new",
          "text": "Link del link a otro sitio",
          "title": "Link",
          "url": "#"
        },
        {
          "icon": "open_in_new",
          "text": "Link a otro sitio",
          "title": "Link",
          "url": "#"
        }
      ]
    },
    {
      "active": false,
      "type": "table",
      "title": "",
      "content": {
        "columns": ["Hora", "Sección"],
        "rows": [
          {
            "hora": "9:00 - 9:30",
            "seccion": "Lorem ipsum dolor sit amet, consectetur adipiscing elit."
          },
          {
            "hora": "9:00 - 9:30",
            "seccion": "Lorem ipsum dolor sit amet, consectetur adipiscing elit. Integer ut justo non eros convallis rhoncus. Nunc sit amet cursus felis. Aliquam ultricies lacus ut mollis placerat."
          },
          {
            "hora": "9:00 - 9:30",
            "seccion": "Lorem ipsum dolor sit amet, consectetur adipiscing elit."
          },
          {
            "hora": "9:00 - 9:30",
            "seccion": "Lorem ipsum dolor sit amet, consectetur adipiscing elit. Integer ut justo non eros convallis rhoncus. Nunc sit amet cursus felis. Aliquam ultricies lacus ut mollis placerat."
          }
        ]
      }
    },
    {
      "active": false,
      "type": "map",
      "title": "Vista de mapa",
      "content": {
        "direccion": "Direccion",
        "lat": -33.4295733,
        "lon": -70.6211627
      }
    }
  ]
}
