{
  "horizon_header": {
    "active": true,
    "title": "Suscripción",
    "excerpt": "",
    "image": "assets/img/destacados.jpg",
    "tag": {
      "text": "Novedades",
      "title": "Novedades",
      "url": "/content/suscripcion"
    },
    "section_breadcrumbs": {
      "active": true,
      "breadcrumbs": [
        {
          "text": "Inicio",
          "title": "Inicio",
          "url": "/"
        },
        {
          "text": "Novedades",
          "title": "Novedades",
          "url": "/content/suscripcion"
        },
        {
          "text": "Suscripción",
          "title": "Suscripción",
          "url": "/content/suscripcion"
        }
      ]
    }
  },
  "horizon_contents": [
    {
      "active": false,
      "type": "text",
      "title": "",
      "content": "Lorem ipsum dolor sit amet, consectetuer adipiscing elit. Aenean commodo ligula eget dolor. Aenean massa. Cum sociis natoque penatibus et magnis dis parturient montes, nascetur ridiculus mus. Donec quam felis, ultricies nec, pellentesque eu, pretium quis, sem. Nulla consequat massa quis enim. Donec pede justo, fringilla vel, aliquet nec, vulputate eget, arcu. In enim justo, rhoncus ut, imperdiet a, venenatis vitae, justo. Nullam dictum felis eu pede mollis pretium. Integer tincidunt."
    },
    {
      "active": false,
      "type": "image",
      "title": "",
      "content": "https://picsum.photos/1600/900"
    },
    {
      "active": false,
      "type": "text",
      "title": "Una alternativa accesible para mirar el fondo marino",
      "content": "Lorem ipsum dolor sit amet, consectetuer adipiscing elit. Aenean commodo ligula eget dolor. Aenean massa. Cum sociis natoque penatibus et magnis dis parturient montes, nascetur ridiculus mus. Donec quam felis, ultricies nec, pellentesque eu, pretium quis, sem. Nulla consequat massa quis enim. Donec pede justo, fringilla vel, aliquet nec, vulputate eget, arcu. In enim justo, rhoncus ut, imperdiet a, venenatis vitae, justo. Nullam dictum felis eu pede mollis pretium. Integer tincidunt. Lorem ipsum dolor sit amet, consectetuer adipiscing elit. Aenean commodo ligula eget dolor. Aenean massa. Cum sociis natoque penatibus et magnis dis parturient montes, nascetur ridiculus mus. Donec quam felis, ultricies nec, pellentesque eu, pretium quis, sem. Nulla consequat massa quis enim. Donec pede justo, fringilla vel, aliquet nec, vulputate eget, arcu. In enim justo, rhoncus ut, imperdiet a, venenatis vitae, justo. Nullam dictum felis eu pede mollis pretium. Integer tincidunt. Lorem ipsum dolor sit amet, consectetuer adipiscing elit. Aenean commodo ligula eget dolor. Aenean massa. Cum sociis natoque penatibus et magnis dis parturient montes, nascetur ridiculus mus. Donec quam felis, ultricies nec, pellentesque eu, pretium quis, sem. Nulla consequat massa quis enim. Donec pede justo, fringilla vel, aliquet nec, vulputate eget, arcu. In enim justo, rhoncus ut, imperdiet a, venenatis vitae, justo. Nullam dictum felis eu pede mollis pretium. Integer tincidunt."
    },
    {
      "active": false,
      "type": "quote_bordered",
      "title": "",
      "content": "Hemos estado más veces en la Luna o en la montaña más alta del planeta, que en la parte más profunda del océano, donde hemos llegado muy pocas ocasiones"
    },
    {
      "active": false,
      "type": "list_normal",
      "title": "",
      "content": [
        {
          "text": "Lorem ipsum dolor sit amet, consectetur adipisicing elit."
        },
        {
          "text": "Lorem ipsum dolor sit amet, consectetuer adipiscing elit. Aenean commodo ligula eget dolor. Aenean massa. Cum sociis natoque penatibus et magnis dis parturient montes, nascetur ridiculus mus."
        },
        {
          "text": "Lorem ipsum dolor sit amet, consectetur adipisicing elit."
        },
        {
          "text": "Lorem ipsum dolor sit amet, consectetuer adipiscing elit. Aenean commodo ligula eget dolor. Aenean massa. Cum sociis natoque penatibus et magnis dis parturient montes, nascetur ridiculus mus."
        },
        {
          "text": "Lorem ipsum dolor sit amet, consectetuer adipiscing elit. Aenean commodo ligula eget dolor. Aenean massa. Cum sociis natoque penatibus et magnis dis parturient montes, nascetur ridiculus mus."
        },
        {
          "text": "Lorem ipsum dolor sit amet, consectetur adipisicing elit."
        }
      ]
    },
    {
      "active": false,
      "type": "quote",
      "title": "",
      "content": "Hemos estado más veces en la Luna o en la montaña más alta del planeta, que en la parte más profunda del océano, donde hemos llegado muy pocas ocasiones"
    },
    {
      "active": false,
      "type": "video",
      "title": "",
      "content": "http://techslides.com/demos/sample-videos/small.mp4"
    },
    {
      "active": false,
      "type": "text",
      "title": "Una alternativa accesible para mirar el fondo marino",
      "content": "Lorem ipsum dolor sit amet, consectetuer adipiscing elit. Aenean commodo ligula eget dolor. Aenean massa. Cum sociis natoque penatibus et magnis dis parturient montes, nascetur ridiculus mus. Donec quam felis, ultricies nec, pellentesque eu, pretium quis, sem. Nulla consequat massa quis enim. Donec pede justo, fringilla vel, aliquet nec, vulputate eget, arcu. In enim justo, rhoncus ut, imperdiet a, venenatis vitae, justo. Nullam dictum felis eu pede mollis pretium. Integer tincidunt."
    },
    {
      "active": false,
      "type": "list_links",
      "title": "Otros repositorios",
      "content": [
        {
          "icon": "open_in_new",
          "text": "Apollo",
          "title": "Link",
          "url": "#"
        },
        {
          "icon": "open_in_new",
          "text": "Repositorio Universidad de Chile",
          "title": "Link",
          "url": "#"
        },
        {
          "icon": "open_in_new",
          "text": "Academia.edu",
          "title": "Link",
          "url": "#"
        },
        {
          "icon": "open_in_new",
          "text": "Link a otro sitio",
          "title": "Link",
          "url": "#"
        },
        {
          "icon": "open_in_new",
          "text": "Link del link a otro sitio",
          "title": "Link",
          "url": "#"
        },
        {
          "icon": "open_in_new",
          "text": "Link a otro sitio",
          "title": "Link",
          "url": "#"
        }
      ]
    },
    {
      "active": false,
      "type": "list_links",
      "title": "Recursos UC",
      "content": [
        {
          "icon": "open_in_new",
          "text": "Apollo",
          "title": "Link",
          "url": "#"
        },
        {
          "icon": "open_in_new",
          "text": "Repositorio Universidad de Chile",
          "title": "Link",
          "url": "#"
        },
        {
          "icon": "open_in_new",
          "text": "Academia.edu",
          "title": "Link",
          "url": "#"
        },
        {
          "icon": "open_in_new",
          "text": "Link a otro sitio",
          "title": "Link",
          "url": "#"
        },
        {
          "icon": "open_in_new",
          "text": "Link del link a otro sitio",
          "title": "Link",
          "url": "#"
        },
        {
          "icon": "open_in_new",
          "text": "Link a otro sitio",
          "title": "Link",
          "url": "#"
        }
      ]
    },
    {
      "active": false,
      "type": "table",
      "title": "",
      "content": {
        "columns": ["Hora", "Sección"],
        "rows": [
          {
            "hora": "9:00 - 9:30",
            "seccion": "Lorem ipsum dolor sit amet, consectetur adipiscing elit."
          },
          {
            "hora": "9:00 - 9:30",
            "seccion": "Lorem ipsum dolor sit amet, consectetur adipiscing elit. Integer ut justo non eros convallis rhoncus. Nunc sit amet cursus felis. Aliquam ultricies lacus ut mollis placerat."
          },
          {
            "hora": "9:00 - 9:30",
            "seccion": "Lorem ipsum dolor sit amet, consectetur adipiscing elit."
          },
          {
            "hora": "9:00 - 9:30",
            "seccion": "Lorem ipsum dolor sit amet, consectetur adipiscing elit. Integer ut justo non eros convallis rhoncus. Nunc sit amet cursus felis. Aliquam ultricies lacus ut mollis placerat."
          }
        ]
      }
    },
    {
      "active": false,
      "type": "map",
      "title": "Vista de mapa",
      "content": {
        "direccion": "Direccion",
        "lat": -33.4295733,
        "lon": -70.6211627
      }
    },
    {
      "active": false,
      "type": "registros",
      "title": "Últimos 10",
      "content": ""
    },
    {
      "active": true,
      "type": "suscripcion",
      "title": "Suscríbete a nuestro newsletter",
      "content": "Ingresa tu correo electrónico y recibe actualizaciones sobre los últimos documentos agregados al Repositorio UC, noticias e información de interés para tus investigaciones."
    }
  ]
}
