{
  "horizon_header": {
    "active": true,
    "title": "Subir y compartir",
    "excerpt": "Quienes forman parte de la Comunidad UC pueden compartir aquí sus tesis, trabajos de graduación, libros, capítulos de libros, artículos, obras creativas o de arte, patentes y datos de investigación con archivos -en distintos formatos- que hayan sido generados o recopilados como insumo para una investigación. Todos estos documentos pueden incluir texto, sonido e imágenes.",
    "section_breadcrumbs": {
      "active": true,
      "breadcrumbs": [
        {
          "text": "Inicio",
          "title": "Inicio",
          "url": "/"
        },
        {
          "text": "Subir y compartir",
          "title": "Subir y compartir",
          "url": "/upload/form"
        }
      ]
    },
    "section_conditions": {
      "active": true,
      "text": "El documento debe cumplir con las siguientes condiciones:",
      "terms": ["Debe ser generado por un integrante activo de la Comunidad UC", "<a href='/content/licencia' target='_black'>Debe autorizar la licencia de publicación </a> "]
    },
    "section_upload": {
      "active": false
    }
  },
  "horizon_documentos_proceso": {
    "active": true,
    "title": "Documentos en proceso",
    "content": {
      "columns": ["Título", "Sección", "Remitente email"],
      "rows": [
        {
          "titulo": "Lorem ipsum",
          "remitent": "maximiliano@gmail.com",
          "seccion": "Lorem ipsum dolor sit amet, consectetur adipiscing elit."
        },
        {
          "titulo": "Lorem ipsum",
          "remitent": "maximiliano@gmail.com",
          "seccion": "Lorem ipsum dolor sit amet, consectetur adipiscing elit."
        },
        {
          "titulo": "Lorem ipsum",
          "remitent": "maximiliano@gmail.com",
          "seccion": "Lorem ipsum dolor sit amet, consectetur adipiscing elit."
        }
      ]
    }
  },
  "horizon_tareas_pendientes": {
    "active": true,
    "title": "Mis Tareas pendientes",
    "content": {
      "columns": ["Título", "Sección", "Remitente email"],
      "rows": [
        {
          "titulo": "Lorem ipsum",
          "remitent": "maximiliano@gmail.com",
          "seccion": "Lorem ipsum dolor sit amet, consectetur adipiscing elit."
        },
        {
          "titulo": "Lorem ipsum",
          "remitent": "maximiliano@gmail.com",
          "seccion": "Lorem ipsum dolor sit amet, consectetur adipiscing elit."
        },
        {
          "titulo": "Lorem ipsum",
          "remitent": "maximiliano@gmail.com",
          "seccion": "Lorem ipsum dolor sit amet, consectetur adipiscing elit."
        }
      ]
    }
  },
  "horizon_forms": {
    "active": true,
    "buttons": {
      "save_changes": {
        "text": "Guardar cambios"
      },
      "save_next": {
        "text": "Guardar y siguiente"
      }
    },
    "content": [
      {
        "active": true,
        "title": "Registrar",
        "sections": [
          {
            "active": true,
            "title": "Datos generales",
            "sections": [
              {
                "active": true,
                "title": "Ingrese la información que describe el conjunto de datos.",
                "input_titulo_investigacion": {
                  "label": "Título",
                  "name": "text_titulo_investigacion",
                  "small": "",
                  "placeholder": "Ingresa el título de la investigación"
                },
                "input_resumen": {
                  "label": "Descripción",
                  "name": "textarea_resumen",
                  "small": "Se recomiendan 500 caracteres",
                  "placeholder": "Ingresa un resumen de la investigación"
                }
              },
              {
                "active": true,
                "title": "Responsables de la creación de los datos.",
                "input_etiquetas": {
                  "label": "Etiquetas (recomendado)",
                  "name": "text_etiquetas",
                  "small": "",
                  "placeholder": "Ingresa los términos separados por comas"
                },
                "input_serie": {
                  "label": "Serie (opcional)",
                  "name": "text_serie",
                  "small": "",
                  "placeholder": "Nombre de la serie"
                },
                "input_numero_informe": {
                  "label": "",
                  "name": "text_numero_informe",
                  "small": "",
                  "placeholder": "Número informe"
                },
                "input_idioma": {
                  "label": "Idioma*",
                  "name": "select_idioma",
                  "small": "",
                  "options": [
                    {
                      "value": "espanol",
                      "text": "Español"
                    },
                    {
                      "value": "ingles",
                      "text": "Ingles"
                    },
                    {
                      "value": "portugues",
                      "text": "Portugues"
                    }
                  ]
                },
                "input_tipo_material": {
                  "label": "Tipo de material",
                  "name": "select_material",
                  "small": "",
                  "options": [
                    {
                      "value": "m1",
                      "text": "Material 1"
                    },
                    {
                      "value": "m2",
                      "text": "Material 2"
                    }
                  ]
                }
              },
              {
                "active": true,
                "title": "Ingrese editorial de los datos.",
                "bajada": "Ingrese el nombre de la organización o servicio responsable de hacer los datos disponibles. Ejemplo: Pontificia Universidad Católica de Chile. Facultad de Ciencias sociales.",
                "input_editorial": {
                  "label": "Editorial",
                  "name": "text_editorial",
                  "small": "",
                  "placeholder": "Ingrese editorial"
                }
              },
              {
                "active": true,
                "title": "Seleccione los temas que identifican el contenido del conjunto de datos.",
                "excerpt": "",
                "input_categoria": {
                  "label": "Categorías",
                  "name": "categoria",
                  "small": "",
                  "options": [
                    {
                      "name": "ciencias_politicas",
                      "text": "Ciencias Políticas"
                    },
                    {
                      "name": "ciencias",
                      "text": "Ciencias"
                    },
                    {
                      "name": "artes",
                      "text": "Artes"
                    },
                    {
                      "name": "ciencias_informacion",
                      "text": "Ciencias de la Información"
                    },
                    {
                      "name": "ciencias_computacion",
                      "text": "Ciencias de la computación"
                    },
                    {
                      "name": "periodismo",
                      "text": "Periodismo"
                    },
                    {
                      "name": "filosofia",
                      "text": "Filosofía"
                    },
                    {
                      "name": "psicologia",
                      "text": "Psicología"
                    },
                    {
                      "name": "etica",
                      "text": "Ética"
                    },
                    {
                      "name": "religion",
                      "text": "Religión"
                    },
                    {
                      "name": "ciencias_sociales",
                      "text": "Ciencias Sociales"
                    },
                    {
                      "name": "economia",
                      "text": "Economía"
                    },
                    {
                      "name": "derecho",
                      "text": "Derecho"
                    },
                    {
                      "name": "administracion_publica",
                      "text": "Administración Pública"
                    },
                    {
                      "name": "educacion",
                      "text": "Educación"
                    },
                    {
                      "name": "comunicacion_transporte",
                      "text": "Comunicación y Transporte"
                    },
                    {
                      "name": "lenguas",
                      "text": "Lenguas"
                    },
                    {
                      "name": "matematicas_fisica_quimica",
                      "text": "Matemáticas, Física y Química"
                    },
                    {
                      "name": "astronomia",
                      "text": "Astronomía"
                    },
                    {
                      "name": "ciencias_tierra",
                      "text": "Ciencias de la Tierra"
                    },
                    {
                      "name": "biologia",
                      "text": "Biología"
                    },
                    {
                      "name": "tecnologia",
                      "text": "Tecnología"
                    },
                    {
                      "name": "medicina_salud",
                      "text": "Medicina y Salud"
                    },
                    {
                      "name": "ingenieria",
                      "text": "Ingeniería"
                    },
                    {
                      "name": "administracion",
                      "text": "Administración"
                    },
                    {
                      "name": "arquitectura",
                      "text": "Arquitectura"
                    },
                    {
                      "name": "recreacion",
                      "text": "Recreación"
                    },
                    {
                      "name": "literatura",
                      "text": "Literatura"
                    },
                    {
                      "name": "historia_geografia",
                      "text": "Historia y Geografía"
                    }
                  ]
                },
                "input_keyword": {
                  "label": "Palabras claves (Separadas por coma)",
                  "name": "keyword",
                  "small": "Separadas por coma",
                  "placeholder": "Por ej: libro, salud, puc"
                }
              },
              {
                "active": true,
                "title": "Si sus datos acompañan una publicación, complete los siguientes campos.",
                "excerpt": "",
                "input_titulo_relacionada": {
                  "label": "Título publicación relacionada",
                  "name": "titulo_relacionada",
                  "small": "",
                  "placeholder": "Ingresar publicación relacionada"
                },
                "input_url_relacionada": {
                  "label": "Url publicación relacionada",
                  "name": "url_relacionada",
                  "small": "",
                  "placeholder": "Ingresar url publicación relacionada"
                }
              }
            ]
          },
          {
            "active": true,
            "title": "Subir archivos",
            "sections": [
              {
                "active": true,
                "title": "Sube tu archivo",
                "excerpt": "",
                "input_seleccionar_archivo": {
                  "label": "Archivos",
                  "boton": "Cargar archivos (peso máx. 1,5GB)",
                  "name": "file_upload",
                  "small": ""
                },
                "input_tipo_acceso": {
                  "label": "Tipo de acceso",
                  "name": "select_tipo_acceso",
                  "small": "",
                  "options": [
                    {
                      "value": "public",
                      "text": "Público"
                    },
                    {
                      "value": "restricted",
                      "text": "Restringido"
                    },
                    {
                      "value": "embarged",
                      "text": "Embargado"
                    }
                  ]
                },
                "input_descripcion_archivo": {
                  "label": "Descripción del archivo",
                  "name": "textarea_descripcion_archivo",
                  "small": "",
                  "placeholder": "Si lo desea, puede describir brevemente el contenido de este archivo, por ejemplo 'Artículo principal', o 'Lectura de los datos del documento'"
                },
                "input_fecha_embargo": {
                  "label": "Fecha de embargo",
                  "name": "datepicker_fecha_embargo",
                  "small": "Indica la fecha final del embargo si se trata de un ítem con embargo",
                  "placeholder": "aaaa/mm/dd"
                }
              }
            ]
          },
          {
            "active": true,
            "title": "Licencia",
            "bajada": "Ingrese el nombre de la organización o servicio responsable de hacer los datos disponibles. Ejemplo: Pontificia Universidad Católica de Chile. Facultad de Ciencias sociales."
          }
        ]
      },
      {
        "active": true,
        "title": "Verificar"
      },
      {
        "active": true,
        "title": "Resultado de Envío"
      }, 
      {
        "active": true,
        "title": "Resultado de Envío"
      }
    ]
  },
  "section_help":{
    "active": true,
    "help": [
      {
        "excerpt": "",
        "image": "mail",
        "link": {
          "icon": "open_in_new",
          "text": "",
          "title": "Link a correo",
          "url": "mailto:gestiondedatos@uc.cl"
        },
        "title": "Consultas a gestiondedatos@uc.cl"
      },
      {
        "excerpt": "",
        "image": "cloud_upload",
        "link": {
          "icon": "open_in_new",
          "text": "",
          "title": "link a Cómo subir datos al Repositorio UC",
          "url": "https://guiastematicas.bibliotecas.uc.cl/gdi_ip/subirdatos"
        },
        "title": "Cómo subir datos al Repositorio UC"
      },
      {
        "excerpt": "",
        "image": "checklist_rtl",
        "link": {
          "icon": "open_in_new",
          "text": "",
          "title": "link a Checklist para compartir datos",
          "url": "https://guiastematicas.bibliotecas.uc.cl/gdi_ip/checklist"
        },
        "title": "Checklist para compartir datos"
      }
    ]
  },
  "rating": {
    "star":{
      "active": false,
      "title": "Ayúdanos a mejorar tu experiencia",
      "pregunta": "Valora lo ofrecido en esta página",
      "comentario": "¿Algún comentario que desee incluir?",
      "pagina": ""
    }
  }
}
