{
  "conjuntos-de-datos":
  {
    "horizon_header": {
      "active": false,
      "title": "Datos de Investigación",
      "section_breadcrumbs": {
        "active": true,
        "breadcrumbs": [
          {
            "text": "Inicio",
            "title": "Ir a página de inicio del Repositorio",
            "url": "/"
          },
          {
            "text": "Datos de Investigación",
            "title": "Te encuentras en página Datos de Investigación",
            "url": "/pagina/datos-investigacion"
          }
        ]
      },
      "section_excerpt": {
        "active": false,
        "excerpt": ""
      },
      "section_button": {
        "active": true,
        "value": "Comparte tu investigación",
        "title": "Comparte tu investigación",
        "link": "datos-investigacion"
      }
    },
    "horizon_search": {
      "active": true,
      "title": "",
      "excerpt": ""
    },
    "busqueda-tesis":{
      "titulo":"conjuntos de datos",
      "input-text-alt":"Buscar contenidos en Datos de Investigación",
      "busqueda-avanzada":{
        "titulo": "Búsqueda avanzada",
        "url":"/busqueda"
      }
    },
    "horizon_destacados": {
      "active": true,
      "title": "Tesis destacadas",
      "excerpt": "Lorem ipsum dolor sit amet, consectetur adipiscing elit, sed do eiusmod tempor incididunt ut labore et dolore magna aliqua. Lorem ipsum dolor sit amet, consectetur adipiscing elit, sed do eiusmod tempor incididunt ut labore et dolore magna aliqua"
    },
    "horizon_topics": {
      "active": true,
      "excerpt": "Lorem ipsum dolor sit amet, consectetur adipisicing elit, sed do eiusmod tempor incididunt ut labore et dolore magna aliqua. Ut enim ad minim veniam, quis nostrud exercitation ullamco laboris nisi ut aliquip ex ea commodo consequat. Duis aute irure dolor in reprehenderit in voluptate velit esse cillum dolore eu fugiat nulla pariatur. Excepteur sint occaecat cupidatat non proident, sunt in culpa qui officia deserunt mollit anim id est laborum.",
      "title": "Áreas temáticas",
      "section_cards_big": {
        "active": false,
        "title": ""
      },
      "section_cards_medium": {
        "active": false,
        "title": ""
      },
      "section_cards_small": {
        "active": true,
        "title": ""
      }
    },
    "horizon_tesis": {
      "active": true,
      "title": "Tesis",
      "excerpt": "Últimas publicaciones",
      "link": {
        "icon": "arrow_forward",
        "text": "Ver todas las tesis",
        "title": "Link",
        "url": "/cover-content"
      },
      "type_slug": "tesis_postgrado"
    },
    "horizon_trabajos": {
      "active": true,
      "title": "Trabajos de graduación",
      "excerpt": "Últimas publicaciones",
      "link": {
        "icon": "arrow_forward",
        "text": "Ver todos los trabajos",
        "title": "Link",
        "url": "/cover-content"
      },
      "type_slug": "trabajos_graduacion"
    },
    "section_help":{
      "active": true,
      "help": [
        {
          "excerpt": "",
          "image": "email",
          "link": {
            "icon": "open_in_new",
            "text": "",
            "title": "Link a correo",
            "url": "mailto:gestiondedatos@uc.cl"
          },
          "title": "Consultas a gestiondedatos@uc.cl"
        },
        {
          "excerpt": "",
          "image": "cloud_upload",
          "link": {
            "icon": "open_in_new",
            "text": "",
            "title": "link a Cómo subir datos al Repositorio UC",
            "url": "https://guiastematicas.bibliotecas.uc.cl/gdi_ip/subirdatos"
          },
          "title": "Cómo subir datos al Repositorio UC"
        },
        {
          "excerpt": "",
          "image": "checklist_rtl",
          "link": {
            "icon": "open_in_new",
            "text": "",
            "title": "link a Checklist para compartir datos",
            "url": "https://guiastematicas.bibliotecas.uc.cl/gdi_ip/checklist"
          },
          "title": "Checklist para compartir datos"
        }
      ]
    }
  },
  "tesis":
  {
    "horizon_header": {
      "active": false,
      "title": "Tesis (Doctorado / Magister)",
      "section_breadcrumbs": {
        "active": true,
        "breadcrumbs": [
          {
            "text": "Inicio",
            "title": "Ir a página de inicio del Repositorio",
            "url": "/"
          },
          {
            "text": "Tesis",
            "title": "Te encuentras en página Tesis (Doctorado / Magister) de la sección Tesis",
            "url": "/pagina/tesis"
          },
          {
            "text": "Tesis (Doctorado / Magister)",
            "title": "Te encuentras en página Tesis (Doctorado / Magister)",
            "url": "/pagina/tesis"
          }
        ]
      },
      "section_excerpt": {
        "active": false,
        "excerpt": ""
      },
      "section_button": {
        "active": true,
        "value": "Comparte tu investigación",
        "title": "Ingresar para subir documento",
        "link": "upload/subir-tesis-trabajos"
      }
    },
    "horizon_search": {
      "active": true,
      "title": "",
      "excerpt": ""
    },
    "busqueda-tesis":{
        "titulo":"tesis",
        "input-text-alt":"Buscar contenidos en tesis",
        "busqueda-avanzada":{
          "titulo": "Búsqueda avanzada",
          "url":"/busqueda"
        }
    },
    "horizon_destacados": {
      "active": true,
      "title": "Tesis destacadas",
      "excerpt": "Lorem ipsum dolor sit amet, consectetur adipiscing elit, sed do eiusmod tempor incididunt ut labore et dolore magna aliqua. Lorem ipsum dolor sit amet, consectetur adipiscing elit, sed do eiusmod tempor incididunt ut labore et dolore magna aliqua"
    },
    "horizon_topics": {
      "active": true,
      "excerpt": "Lorem ipsum dolor sit amet, consectetur adipisicing elit, sed do eiusmod tempor incididunt ut labore et dolore magna aliqua. Ut enim ad minim veniam, quis nostrud exercitation ullamco laboris nisi ut aliquip ex ea commodo consequat. Duis aute irure dolor in reprehenderit in voluptate velit esse cillum dolore eu fugiat nulla pariatur. Excepteur sint occaecat cupidatat non proident, sunt in culpa qui officia deserunt mollit anim id est laborum.",
      "title": "Áreas temáticas",
      "section_cards_big": {
        "active": false,
        "title": ""
      },
      "section_cards_medium": {
        "active": false,
        "title": ""
      },
      "section_cards_small": {
        "active": true,
        "title": ""
      }
    },
    "horizon_tesis": {
      "active": true,
      "title": "Tesis",
      "excerpt": "Últimas publicaciones",
      "link": {
        "icon": "arrow_forward",
        "text": "Ver todas las tesis",
        "title": "Link",
        "url": "/cover-content"
      },
      "type_slug": "tesis_postgrado"
    },
    "horizon_trabajos": {
      "active": true,
      "title": "Trabajos de graduación",
      "excerpt": "Últimas publicaciones",
      "link": {
        "icon": "arrow_forward",
        "text": "Ver todos los trabajos",
        "title": "Link",
        "url": "/cover-content"
      },
      "type_slug": "trabajos_graduacion"
    },
    "section_help":{
      "active": false,
      "help": [
        {
          "excerpt": "",
          "image": "receipt_long",
          "link": {
            "icon": "open_in_new",
            "text": "",
            "title": "Link a Consulta nuestra guía",
            "url": "https://guiastematicas.bibliotecas.uc.cl/gdi_ip/inicio"
          },
          "title": "Consulta nuestra guía"
        },
        {
          "excerpt": "",
          "image": "cloud_upload",
          "link": {
            "icon": "open_in_new",
            "text": "",
            "title": "link a Cómo subir datos al Repositorio UC",
            "url": "https://guiastematicas.bibliotecas.uc.cl/gdi_ip/beneficios"
          },
          "title": "Cómo subir datos al Repositorio UC"
        },
        {
          "excerpt": "",
          "image": "checklist_rtl",
          "link": {
            "icon": "open_in_new",
            "text": "",
            "title": "link a Checklist para compartir datos",
            "url": "https://guiastematicas.bibliotecas.uc.cl/gdi_ip/checklist"
          },
          "title": "Checklist para compartir datos"
        }
      ]
    }
  },
  "trabajos-graduacion":
  {
    "horizon_header": {
      "active": true,
      "title": "Trabajos de Graduación",
      "section_breadcrumbs": {
        "active": true,
        "breadcrumbs": [
          {
            "text": "Inicio",
            "title": "Ir a página de inicio del Repositorio",
            "url": "/"
          },
          {
            "text": "Tesis",
            "title": "Tesis",
            "url": "/pagina/trabajos-graduacion"
          },
          {
            "text": "Trabajos de Graduación",
            "title": "Trabajos de Graduación",
            "url": "/pagina/trabajos-graduacion"
          }
        ]
      },
      "section_excerpt": {
        "active": true,
        "excerpt": "Modalidad de “trabajo final” que ha sido adoptado por algunas unidades académicas de la UC.  En ésta se pueden integrar y aplicar aspectos teóricos y prácticos,  con el propósito de generar nuevo conocimiento y entregar soluciones creativas."
      },
      "section_button": {
        "active": true,
        "value": "Comparte tu investigación",
        "title": "Ingresar para subir documento",
        "link": "/upload/subir-tesis-trabajos"
      }
    },
    "horizon_search": {
      "active": true,
      "title": "",
      "excerpt": ""
    },
    "busqueda-tesis":{
        "titulo":"trabajos de graduación",
        "input-text-alt":"Buscar contenidos en trabajos de graduación",
        "busqueda-avanzada":{
          "titulo": "Búsqueda avanzada",
          "url":"/busqueda"
        }
    },
    "horizon_destacados": {
      "active": true,
      "title": "Tesis destacadas",
      "excerpt": "Lorem ipsum dolor sit amet, consectetur adipiscing elit, sed do eiusmod tempor incididunt ut labore et dolore magna aliqua. Lorem ipsum dolor sit amet, consectetur adipiscing elit, sed do eiusmod tempor incididunt ut labore et dolore magna aliqua"
    },
    "horizon_topics": {
      "active": true,
      "excerpt": "Lorem ipsum dolor sit amet, consectetur adipisicing elit, sed do eiusmod tempor incididunt ut labore et dolore magna aliqua. Ut enim ad minim veniam, quis nostrud exercitation ullamco laboris nisi ut aliquip ex ea commodo consequat. Duis aute irure dolor in reprehenderit in voluptate velit esse cillum dolore eu fugiat nulla pariatur. Excepteur sint occaecat cupidatat non proident, sunt in culpa qui officia deserunt mollit anim id est laborum.",
      "title": "Áreas temáticas",
      "section_cards_big": {
        "active": false,
        "title": ""
      },
      "section_cards_medium": {
        "active": false,
        "title": ""
      },
      "section_cards_small": {
        "active": true,
        "title": ""
      }
    },
    "horizon_tesis": {
      "active": true,
      "title": "Tesis",
      "excerpt": "Últimas publicaciones",
      "link": {
        "icon": "arrow_forward",
        "text": "Ver todas las tesis",
        "title": "Link",
        "url": "/cover-content"
      },
      "type_slug": "tesis_postgrado"
    },
    "horizon_trabajos": {
      "active": true,
      "title": "Trabajos de graduación",
      "excerpt": "Últimas publicaciones",
      "link": {
        "icon": "arrow_forward",
        "text": "Ver todos los trabajos",
        "title": "Link",
        "url": "/cover-content"
      },
      "type_slug": "trabajos_graduacion"
    },
    "section_help":{
      "active": false,
      "help": [
        {
          "excerpt": "",
          "image": "receipt_long",
          "link": {
            "icon": "open_in_new",
            "text": "",
            "title": "Link a Consulta nuestra guía",
            "url": "https://guiastematicas.bibliotecas.uc.cl/gdi_ip/inicio"
          },
          "title": "Consulta nuestra guía"
        },
        {
          "excerpt": "",
          "image": "cloud_upload",
          "link": {
            "icon": "open_in_new",
            "text": "",
            "title": "link a Cómo subir datos al Repositorio UC",
            "url": "https://guiastematicas.bibliotecas.uc.cl/gdi_ip/beneficios"
          },
          "title": "Cómo subir datos al Repositorio UC"
        },
        {
          "excerpt": "",
          "image": "checklist_rtl",
          "link": {
            "icon": "open_in_new",
            "text": "",
            "title": "link a Checklist para compartir datos",
            "url": "https://guiastematicas.bibliotecas.uc.cl/gdi_ip/checklist"
          },
          "title": "Checklist para compartir datos"
        }
      ]
    }
  },
  "articulos":
  {
    "horizon_header": {
      "active": false,
      "title": "Artículos Académicos",
      "section_breadcrumbs": {
        "active": true,
        "breadcrumbs": [
          {
            "text": "Inicio",
            "title": "Ir a página de inicio del Repositorio",
            "url": "/"
          },
          {
            "text": "Publicaciones",
            "title": "Te encuentras en página Artículos de la sección Publicaciones",
            "url": "/pagina/articulos"
          },
          {
            "text": "Artículos Académicos",
            "title": "Te encuentras en página Artículos Académicos",
            "url": "/pagina/articulos"
          }
        ]
      },
      "section_excerpt": {
        "active": true,
        "excerpt": ""
      },
      "section_button": {
        "active": true,
        "value": "Comparte tu investigación",
        "title": "Ingresar para subir documento",
        "link": "upload/subir-publicacion"
      }
    },
    "horizon_search": {
      "active": true,
      "title": "",
      "excerpt": ""
    },
    "busqueda-tesis":{
        "titulo":"artículos",
        "input-text-alt":"Buscar contenidos en artículos académicos",
        "busqueda-avanzada":{
          "titulo": "Búsqueda avanzada",
          "url":"/busqueda"
        }
    },
    "horizon_destacados": {
      "active": true,
      "title": "Tesis destacadas",
      "excerpt": "Lorem ipsum dolor sit amet, consectetur adipiscing elit, sed do eiusmod tempor incididunt ut labore et dolore magna aliqua. Lorem ipsum dolor sit amet, consectetur adipiscing elit, sed do eiusmod tempor incididunt ut labore et dolore magna aliqua"
    },
    "horizon_topics": {
      "active": true,
      "excerpt": "Lorem ipsum dolor sit amet, consectetur adipisicing elit, sed do eiusmod tempor incididunt ut labore et dolore magna aliqua. Ut enim ad minim veniam, quis nostrud exercitation ullamco laboris nisi ut aliquip ex ea commodo consequat. Duis aute irure dolor in reprehenderit in voluptate velit esse cillum dolore eu fugiat nulla pariatur. Excepteur sint occaecat cupidatat non proident, sunt in culpa qui officia deserunt mollit anim id est laborum.",
      "title": "Áreas temáticas",
      "section_cards_big": {
        "active": false,
        "title": ""
      },
      "section_cards_medium": {
        "active": false,
        "title": ""
      },
      "section_cards_small": {
        "active": true,
        "title": ""
      }
    },
    "horizon_tesis": {
      "active": true,
      "title": "Tesis",
      "excerpt": "Últimas publicaciones",
      "link": {
        "icon": "arrow_forward",
        "text": "Ver todas las tesis",
        "title": "Link",
        "url": "/cover-content"
      },
      "type_slug": "tesis_postgrado"
    },
    "horizon_trabajos": {
      "active": true,
      "title": "Trabajos de graduación",
      "excerpt": "Últimas publicaciones",
      "link": {
        "icon": "arrow_forward",
        "text": "Ver todos los trabajos",
        "title": "Link",
        "url": "/cover-content"
      },
      "type_slug": "trabajos_graduacion"
    },
    "section_help":{
      "active": false,
      "help": [
        {
          "excerpt": "",
          "image": "receipt_long",
          "link": {
            "icon": "open_in_new",
            "text": "",
            "title": "Link a Consulta nuestra guía",
            "url": "https://guiastematicas.bibliotecas.uc.cl/gdi_ip/inicio"
          },
          "title": "Consulta nuestra guía"
        },
        {
          "excerpt": "",
          "image": "cloud_upload",
          "link": {
            "icon": "open_in_new",
            "text": "",
            "title": "link a Cómo subir datos al Repositorio UC",
            "url": "https://guiastematicas.bibliotecas.uc.cl/gdi_ip/beneficios"
          },
          "title": "Cómo subir datos al Repositorio UC"
        },
        {
          "excerpt": "",
          "image": "checklist_rtl",
          "link": {
            "icon": "open_in_new",
            "text": "",
            "title": "link a Checklist para compartir datos",
            "url": "https://guiastematicas.bibliotecas.uc.cl/gdi_ip/checklist"
          },
          "title": "Checklist para compartir datos"
        }
      ]
    }
  },
  "capitulos-libros":
  {
    "horizon_header": {
      "active": false,
      "title": "Capítulos de Libros",
      "section_breadcrumbs": {
        "active": true,
        "breadcrumbs": [
          {
            "text": "Inicio",
            "title": "Ir a página de inicio del Repositorio",
            "url": "/"
          },
          {
            "text": "Publicaciones",
            "title": "Te encuentras en la página Capítulos de Libros de la sección Publicaciones",
            "url": "/pagina/capitulos-libros"
          },
          {
            "text": "Capítulos de Libros",
            "title": "Te encuentras en página Capítulos de Libros",
            "url": "/pagina/capitulos-libros"
          }
        ]
      },
      "section_excerpt": {
        "active": true,
        "excerpt": ""
      },
      "section_button": {
        "active": true,
        "value": "Comparte tu investigación",
        "title": "Ingresar para subir documento",
        "link": "upload/subir-publicacion"
      }
    },
    "horizon_search": {
      "active": true,
      "title": "",
      "excerpt": ""
    },
    "busqueda-tesis":{
        "titulo":"Capítulo de libros",
        "input-text-alt":"Buscar contenidos en capítulos de libros",
        "busqueda-avanzada":{
          "titulo": "Búsqueda avanzada",
          "url":"/busqueda"
        }
    },
    "horizon_destacados": {
      "active": true,
      "title": "Tesis destacadas",
      "excerpt": "Lorem ipsum dolor sit amet, consectetur adipiscing elit, sed do eiusmod tempor incididunt ut labore et dolore magna aliqua. Lorem ipsum dolor sit amet, consectetur adipiscing elit, sed do eiusmod tempor incididunt ut labore et dolore magna aliqua"
    },
    "horizon_topics": {
      "active": true,
      "excerpt": "Lorem ipsum dolor sit amet, consectetur adipisicing elit, sed do eiusmod tempor incididunt ut labore et dolore magna aliqua. Ut enim ad minim veniam, quis nostrud exercitation ullamco laboris nisi ut aliquip ex ea commodo consequat. Duis aute irure dolor in reprehenderit in voluptate velit esse cillum dolore eu fugiat nulla pariatur. Excepteur sint occaecat cupidatat non proident, sunt in culpa qui officia deserunt mollit anim id est laborum.",
      "title": "Áreas temáticas",
      "section_cards_big": {
        "active": false,
        "title": ""
      },
      "section_cards_medium": {
        "active": false,
        "title": ""
      },
      "section_cards_small": {
        "active": true,
        "title": ""
      }
    },
    "horizon_tesis": {
      "active": true,
      "title": "Tesis",
      "excerpt": "Últimas publicaciones",
      "link": {
        "icon": "arrow_forward",
        "text": "Ver todas las tesis",
        "title": "Link",
        "url": "/cover-content"
      },
      "type_slug": "tesis_postgrado"
    },
    "horizon_trabajos": {
      "active": true,
      "title": "Trabajos de graduación",
      "excerpt": "Últimas publicaciones",
      "link": {
        "icon": "arrow_forward",
        "text": "Ver todos los trabajos",
        "title": "Link",
        "url": "/cover-content"
      },
      "type_slug": "trabajos_graduacion"
    },
    "section_help":{
      "active": false,
      "help": [
        {
          "excerpt": "",
          "image": "receipt_long",
          "link": {
            "icon": "open_in_new",
            "text": "",
            "title": "Link a Consulta nuestra guía",
            "url": "https://guiastematicas.bibliotecas.uc.cl/gdi_ip/inicio"
          },
          "title": "Consulta nuestra guía"
        },
        {
          "excerpt": "",
          "image": "cloud_upload",
          "link": {
            "icon": "open_in_new",
            "text": "",
            "title": "link a Cómo subir datos al Repositorio UC",
            "url": "https://guiastematicas.bibliotecas.uc.cl/gdi_ip/beneficios"
          },
          "title": "Cómo subir datos al Repositorio UC"
        },
        {
          "excerpt": "",
          "image": "checklist_rtl",
          "link": {
            "icon": "open_in_new",
            "text": "",
            "title": "link a Checklist para compartir datos",
            "url": "https://guiastematicas.bibliotecas.uc.cl/gdi_ip/checklist"
          },
          "title": "Checklist para compartir datos"
        }
      ]
    }
  },
  "libros":
  {
    "horizon_header": {
      "active": false,
      "title": "Libros",
      "section_breadcrumbs": {
        "active": true,
        "breadcrumbs": [
          {
            "text": "Inicio",
            "title": "Ir a página de inicio del Repositorio",
            "url": "/"
          },
          {
            "text": "Publicaciones",
            "title": "Te encuentras en la página Libros sección Publicaciones",
            "url": "/pagina/libros"
          },
          {
            "text": "Libros",
            "title": "Te encuentras en la página Libros",
            "url": "/pagina/libros"
          }
        ]
      },
      "section_excerpt": {
        "active": true,
        "excerpt": ""
      },
      "section_button": {
        "active": true,
        "value": "Comparte tu investigación",
        "title": "Ingresar para subir documento",
        "link": "upload/subir-publicacion"
      }
    },
    "horizon_search": {
      "active": true,
      "title": "",
      "excerpt": ""
    },
    "busqueda-tesis":{
        "titulo":"libros",
        "input-text-alt":"Buscar contenidos en libros",
        "busqueda-avanzada":{
          "titulo": "Búsqueda avanzada",
          "url":"/busqueda"
        }
    },
    "horizon_destacados": {
      "active": true,
      "title": "Tesis destacadas",
      "excerpt": "Lorem ipsum dolor sit amet, consectetur adipiscing elit, sed do eiusmod tempor incididunt ut labore et dolore magna aliqua. Lorem ipsum dolor sit amet, consectetur adipiscing elit, sed do eiusmod tempor incididunt ut labore et dolore magna aliqua"
    },
    "horizon_topics": {
      "active": true,
      "excerpt": "Lorem ipsum dolor sit amet, consectetur adipisicing elit, sed do eiusmod tempor incididunt ut labore et dolore magna aliqua. Ut enim ad minim veniam, quis nostrud exercitation ullamco laboris nisi ut aliquip ex ea commodo consequat. Duis aute irure dolor in reprehenderit in voluptate velit esse cillum dolore eu fugiat nulla pariatur. Excepteur sint occaecat cupidatat non proident, sunt in culpa qui officia deserunt mollit anim id est laborum.",
      "title": "Áreas temáticas",
      "section_cards_big": {
        "active": false,
        "title": ""
      },
      "section_cards_medium": {
        "active": false,
        "title": ""
      },
      "section_cards_small": {
        "active": true,
        "title": ""
      }
    },
    "horizon_tesis": {
      "active": true,
      "title": "Tesis",
      "excerpt": "Últimas publicaciones",
      "link": {
        "icon": "arrow_forward",
        "text": "Ver todas las tesis",
        "title": "Link",
        "url": "/cover-content"
      },
      "type_slug": "tesis_postgrado"
    },
    "horizon_trabajos": {
      "active": true,
      "title": "Trabajos de graduación",
      "excerpt": "Últimas publicaciones",
      "link": {
        "icon": "arrow_forward",
        "text": "Ver todos los trabajos",
        "title": "Link",
        "url": "/cover-content"
      },
      "type_slug": "trabajos_graduacion"
    },
    "section_help":{
      "active": false,
      "help": [
        {
          "excerpt": "",
          "image": "receipt_long",
          "link": {
            "icon": "open_in_new",
            "text": "",
            "title": "Link a Consulta nuestra guía",
            "url": "https://guiastematicas.bibliotecas.uc.cl/gdi_ip/inicio"
          },
          "title": "Consulta nuestra guía"
        },
        {
          "excerpt": "",
          "image": "cloud_upload",
          "link": {
            "icon": "open_in_new",
            "text": "",
            "title": "link a Cómo subir datos al Repositorio UC",
            "url": "https://guiastematicas.bibliotecas.uc.cl/gdi_ip/beneficios"
          },
          "title": "Cómo subir datos al Repositorio UC"
        },
        {
          "excerpt": "",
          "image": "checklist_rtl",
          "link": {
            "icon": "open_in_new",
            "text": "",
            "title": "link a Checklist para compartir datos",
            "url": "https://guiastematicas.bibliotecas.uc.cl/gdi_ip/checklist"
          },
          "title": "Checklist para compartir datos"
        }
      ]
    }
  },
  "documentos-trabajo":
  {
    "horizon_header": {
      "active": true,
      "title": "Documentos de Trabajo",
      "section_breadcrumbs": {
        "active": true,
        "breadcrumbs": [
          {
            "text": "Repositorio",
            "title": "Repositorio",
            "url": "/"
          },
          {
            "text": "Publicaciones",
            "title": "Articulos",
            "url": "/portada/publicaciones"
          },
          {
            "text": "Documentos de Trabajo",
            "title": "Documentos de Trabajo",
            "url": "/pagina/documentos-trabajo"
          }
        ]
      },
      "section_excerpt": {
        "active": true,
        "excerpt": "Lorem ipsum dolor sit amet, consectetuer adipiscing elit. Aenean commodo ligula eget dolor. Aenean massa. Cum sociis natoque penatibus et magnis dis parturient montes, nascetur ridiculus mus. Donec quam felis, ultricies nec, pellentesque eu, pretium."
      },
      "section_button": {
        "active": true,
        "value": "Comparte tu investigación",
        "title": "Ingresar para subir documento",
        "link": "/upload/subir-tesis-trabajos"
      }
    },
    "horizon_search": {
      "active": true,
      "title": "",
      "excerpt": ""
    },
    "busqueda-tesis":{
        "titulo":"documentos de trabajo",
        "input-text-alt":"Buscar contenido en documentos de trabajo",
        "busqueda-avanzada":{
          "titulo": "Búsqueda avanzada",
          "url":"/busqueda"
        }
    },
    "horizon_destacados": {
      "active": true,
      "title": "Tesis destacadas",
      "excerpt": "Lorem ipsum dolor sit amet, consectetur adipiscing elit, sed do eiusmod tempor incididunt ut labore et dolore magna aliqua. Lorem ipsum dolor sit amet, consectetur adipiscing elit, sed do eiusmod tempor incididunt ut labore et dolore magna aliqua"
    },
    "horizon_topics": {
      "active": true,
      "excerpt": "Lorem ipsum dolor sit amet, consectetur adipisicing elit, sed do eiusmod tempor incididunt ut labore et dolore magna aliqua. Ut enim ad minim veniam, quis nostrud exercitation ullamco laboris nisi ut aliquip ex ea commodo consequat. Duis aute irure dolor in reprehenderit in voluptate velit esse cillum dolore eu fugiat nulla pariatur. Excepteur sint occaecat cupidatat non proident, sunt in culpa qui officia deserunt mollit anim id est laborum.",
      "title": "Áreas temáticas",
      "section_cards_big": {
        "active": false,
        "title": ""
      },
      "section_cards_medium": {
        "active": false,
        "title": ""
      },
      "section_cards_small": {
        "active": true,
        "title": ""
      }
    },
    "horizon_tesis": {
      "active": true,
      "title": "Tesis",
      "excerpt": "Últimas publicaciones",
      "link": {
        "icon": "arrow_forward",
        "text": "Ver todas las tesis",
        "title": "Link",
        "url": "/cover-content"
      },
      "type_slug": "tesis_postgrado"
    },
    "horizon_trabajos": {
      "active": true,
      "title": "Trabajos de graduación",
      "excerpt": "Últimas publicaciones",
      "link": {
        "icon": "arrow_forward",
        "text": "Ver todos los trabajos",
        "title": "Link",
        "url": "/cover-content"
      },
      "type_slug": "trabajos_graduacion"
    },
    "section_help":{
      "active": false,
      "help": [
        {
          "excerpt": "",
          "image": "receipt_long",
          "link": {
            "icon": "open_in_new",
            "text": "",
            "title": "Link a Consulta nuestra guía",
            "url": "https://guiastematicas.bibliotecas.uc.cl/gdi_ip/inicio"
          },
          "title": "Consulta nuestra guía"
        },
        {
          "excerpt": "",
          "image": "cloud_upload",
          "link": {
            "icon": "open_in_new",
            "text": "",
            "title": "link a Cómo subir datos al Repositorio UC",
            "url": "https://guiastematicas.bibliotecas.uc.cl/gdi_ip/beneficios"
          },
          "title": "Cómo subir datos al Repositorio UC"
        },
        {
          "excerpt": "",
          "image": "checklist_rtl",
          "link": {
            "icon": "open_in_new",
            "text": "",
            "title": "link a Checklist para compartir datos",
            "url": "https://guiastematicas.bibliotecas.uc.cl/gdi_ip/checklist"
          },
          "title": "Checklist para compartir datos"
        }
      ]
    }
  },
  "presentaciones-congresos":
  {
    "horizon_header": {
      "active": true,
      "title": "Presentaciones a Congresos",
      "section_breadcrumbs": {
        "active": true,
        "breadcrumbs": [
          {
            "text": "Repositorio",
            "title": "Repositorio",
            "url": "/"
          },
          {
            "text": "Publicaciones",
            "title": "Publicaciones",
            "url": "/portada/publicaciones"
          },
          {
            "text": "Presentaciones a Congresos",
            "title": "Presentaciones a Congresos",
            "url": "/pagina/presentaciones-congresos"
          }
        ]
      },
      "section_excerpt": {
        "active": true,
        "excerpt": "Lorem ipsum dolor sit amet, consectetuer adipiscing elit. Aenean commodo ligula eget dolor. Aenean massa. Cum sociis natoque penatibus et magnis dis parturient montes, nascetur ridiculus mus. Donec quam felis, ultricies nec, pellentesque eu, pretium."
      },
      "section_button": {
        "active": true,
        "value": "Comparte tu investigación",
        "title": "Ingresar para subir documento",
        "link": "/upload/subir-tesis-trabajos"
      }
    },
    "horizon_search": {
      "active": true,
      "title": "",
      "excerpt": ""
    },
    "busqueda-tesis":{
        "titulo":"¿Qué presentaciones de congresos estás buscando?",
        "input-text-alt":"Buscar por ej. “metodología de investigación",
        "busqueda-avanzada":{
          "titulo": "Búsqueda avanzada",
          "url":"/busqueda"
        }
    },
    "horizon_destacados": {
      "active": true,
      "title": "Tesis destacadas",
      "excerpt": "Lorem ipsum dolor sit amet, consectetur adipiscing elit, sed do eiusmod tempor incididunt ut labore et dolore magna aliqua. Lorem ipsum dolor sit amet, consectetur adipiscing elit, sed do eiusmod tempor incididunt ut labore et dolore magna aliqua"
    },
    "horizon_topics": {
      "active": true,
      "excerpt": "Lorem ipsum dolor sit amet, consectetur adipisicing elit, sed do eiusmod tempor incididunt ut labore et dolore magna aliqua. Ut enim ad minim veniam, quis nostrud exercitation ullamco laboris nisi ut aliquip ex ea commodo consequat. Duis aute irure dolor in reprehenderit in voluptate velit esse cillum dolore eu fugiat nulla pariatur. Excepteur sint occaecat cupidatat non proident, sunt in culpa qui officia deserunt mollit anim id est laborum.",
      "title": "Áreas temáticas",
      "section_cards_big": {
        "active": false,
        "title": ""
      },
      "section_cards_medium": {
        "active": false,
        "title": ""
      },
      "section_cards_small": {
        "active": true,
        "title": ""
      }
    },
    "horizon_tesis": {
      "active": true,
      "title": "Tesis",
      "excerpt": "Últimas publicaciones",
      "link": {
        "icon": "arrow_forward",
        "text": "Ver todas las tesis",
        "title": "Link",
        "url": "/cover-content"
      },
      "type_slug": "tesis_postgrado"
    },
    "horizon_trabajos": {
      "active": true,
      "title": "Trabajos de graduación",
      "excerpt": "Últimas publicaciones",
      "link": {
        "icon": "arrow_forward",
        "text": "Ver todos los trabajos",
        "title": "Link",
        "url": "/cover-content"
      },
      "type_slug": "trabajos_graduacion"
    },
    "section_help":{
      "active": false,
      "help": [
        {
          "excerpt": "",
          "image": "receipt_long",
          "link": {
            "icon": "open_in_new",
            "text": "",
            "title": "Link a Consulta nuestra guía",
            "url": "https://guiastematicas.bibliotecas.uc.cl/gdi_ip/inicio"
          },
          "title": "Consulta nuestra guía"
        },
        {
          "excerpt": "",
          "image": "cloud_upload",
          "link": {
            "icon": "open_in_new",
            "text": "",
            "title": "link a Cómo subir datos al Repositorio UC",
            "url": "https://guiastematicas.bibliotecas.uc.cl/gdi_ip/beneficios"
          },
          "title": "Cómo subir datos al Repositorio UC"
        },
        {
          "excerpt": "",
          "image": "checklist_rtl",
          "link": {
            "icon": "open_in_new",
            "text": "",
            "title": "link a Checklist para compartir datos",
            "url": "https://guiastematicas.bibliotecas.uc.cl/gdi_ip/checklist"
          },
          "title": "Checklist para compartir datos"
        }
      ]
    }
  },
  "obras-artisticas":
  {
    "horizon_header": {
      "active": true,
      "title": "Obras Artísticas",
      "section_breadcrumbs": {
        "active": true,
        "breadcrumbs": [
          {
            "text": "Repositorio",
            "title": "Repositorio",
            "url": "/"
          },
          {
            "text": "Publicaciones",
            "title": "Publicaciones",
            "url": "/portada/publicaciones"
          },
          {
            "text": "Obras Artísticas",
            "title": "Obras Artísticas",
            "url": "/pagina/obras-artisticas"
          }
        ]
      },
      "section_excerpt": {
        "active": true,
        "excerpt": "Lorem ipsum dolor sit amet, consectetuer adipiscing elit. Aenean commodo ligula eget dolor. Aenean massa. Cum sociis natoque penatibus et magnis dis parturient montes, nascetur ridiculus mus. Donec quam felis, ultricies nec, pellentesque eu, pretium."
      },
      "section_button": {
        "active": true,
        "value": "Comparte tu investigación",
        "title": "Ingresar para subir documento",
        "link": "/upload/subir-tesis-trabajos"
      }
    },
    "horizon_search": {
      "active": true,
      "title": "",
      "excerpt": ""
    },
    "busqueda-tesis":{
        "titulo":"¿Qué obras artísticas estás buscando?",
        "input-text-alt":"Buscar por ej. “metodología de investigación",
        "busqueda-avanzada":{
          "titulo": "Búsqueda avanzada",
          "url":"/busqueda"
        }
    },
    "horizon_destacados": {
      "active": true,
      "title": "Tesis destacadas",
      "excerpt": "Lorem ipsum dolor sit amet, consectetur adipiscing elit, sed do eiusmod tempor incididunt ut labore et dolore magna aliqua. Lorem ipsum dolor sit amet, consectetur adipiscing elit, sed do eiusmod tempor incididunt ut labore et dolore magna aliqua"
    },
    "horizon_topics": {
      "active": true,
      "excerpt": "Lorem ipsum dolor sit amet, consectetur adipisicing elit, sed do eiusmod tempor incididunt ut labore et dolore magna aliqua. Ut enim ad minim veniam, quis nostrud exercitation ullamco laboris nisi ut aliquip ex ea commodo consequat. Duis aute irure dolor in reprehenderit in voluptate velit esse cillum dolore eu fugiat nulla pariatur. Excepteur sint occaecat cupidatat non proident, sunt in culpa qui officia deserunt mollit anim id est laborum.",
      "title": "Áreas temáticas",
      "section_cards_big": {
        "active": false,
        "title": ""
      },
      "section_cards_medium": {
        "active": false,
        "title": ""
      },
      "section_cards_small": {
        "active": true,
        "title": ""
      }
    },
    "horizon_tesis": {
      "active": true,
      "title": "Tesis",
      "excerpt": "Últimas publicaciones",
      "link": {
        "icon": "arrow_forward",
        "text": "Ver todas las tesis",
        "title": "Link",
        "url": "/cover-content"
      },
      "type_slug": "tesis_postgrado"
    },
    "horizon_trabajos": {
      "active": true,
      "title": "Trabajos de graduación",
      "excerpt": "Últimas publicaciones",
      "link": {
        "icon": "arrow_forward",
        "text": "Ver todos los trabajos",
        "title": "Link",
        "url": "/cover-content"
      },
      "type_slug": "trabajos_graduacion"
    },
    "section_help":{
      "active": false,
      "help": [
        {
          "excerpt": "",
          "image": "receipt_long",
          "link": {
            "icon": "open_in_new",
            "text": "",
            "title": "Link a Consulta nuestra guía",
            "url": "https://guiastematicas.bibliotecas.uc.cl/gdi_ip/inicio"
          },
          "title": "Consulta nuestra guía"
        },
        {
          "excerpt": "",
          "image": "cloud_upload",
          "link": {
            "icon": "open_in_new",
            "text": "",
            "title": "link a Cómo subir datos al Repositorio UC",
            "url": "https://guiastematicas.bibliotecas.uc.cl/gdi_ip/beneficios"
          },
          "title": "Cómo subir datos al Repositorio UC"
        },
        {
          "excerpt": "",
          "image": "checklist_rtl",
          "link": {
            "icon": "open_in_new",
            "text": "",
            "title": "link a Checklist para compartir datos",
            "url": "https://guiastematicas.bibliotecas.uc.cl/gdi_ip/checklist"
          },
          "title": "Checklist para compartir datos"
        }
      ]
    }
  },
  "otros":
  {
    "horizon_header": {
      "active": true,
      "title": "Otros",
      "section_breadcrumbs": {
        "active": true,
        "breadcrumbs": [
          {
            "text": "Repositorio",
            "title": "Repositorio",
            "url": "/"
          },
          {
            "text": "Publicaciones",
            "title": "Publicaciones",
            "url": "/portada/publicaciones"
          },
          {
            "text": "Otros",
            "title": "Otros",
            "url": "/pagina/otros"
          }
        ]
      },
      "section_excerpt": {
        "active": true,
        "excerpt": "Lorem ipsum dolor sit amet, consectetuer adipiscing elit. Aenean commodo ligula eget dolor. Aenean massa. Cum sociis natoque penatibus et magnis dis parturient montes, nascetur ridiculus mus. Donec quam felis, ultricies nec, pellentesque eu, pretium."
      },
      "section_button": {
        "active": true,
        "value": "Comparte tu investigación",
        "title": "Ingresar para subir documento",
        "link": "/upload/subir-tesis-trabajos"
      }
    },
    "horizon_search": {
      "active": true,
      "title": "",
      "excerpt": ""
    },
    "busqueda-tesis":{
        "titulo":"¿Qué otros estás buscando?",
        "input-text-alt":"Buscar por ej. “metodología de investigación",
        "busqueda-avanzada":{
          "titulo": "Búsqueda avanzada",
          "url":"/busqueda"
        }
    },
    "horizon_destacados": {
      "active": true,
      "title": "Tesis destacadas",
      "excerpt": "Lorem ipsum dolor sit amet, consectetur adipiscing elit, sed do eiusmod tempor incididunt ut labore et dolore magna aliqua. Lorem ipsum dolor sit amet, consectetur adipiscing elit, sed do eiusmod tempor incididunt ut labore et dolore magna aliqua"
    },
    "horizon_topics": {
      "active": true,
      "excerpt": "Lorem ipsum dolor sit amet, consectetur adipisicing elit, sed do eiusmod tempor incididunt ut labore et dolore magna aliqua. Ut enim ad minim veniam, quis nostrud exercitation ullamco laboris nisi ut aliquip ex ea commodo consequat. Duis aute irure dolor in reprehenderit in voluptate velit esse cillum dolore eu fugiat nulla pariatur. Excepteur sint occaecat cupidatat non proident, sunt in culpa qui officia deserunt mollit anim id est laborum.",
      "title": "Áreas temáticas",
      "section_cards_big": {
        "active": false,
        "title": ""
      },
      "section_cards_medium": {
        "active": false,
        "title": ""
      },
      "section_cards_small": {
        "active": true,
        "title": ""
      }
    },
    "horizon_tesis": {
      "active": true,
      "title": "Tesis",
      "excerpt": "Últimas publicaciones",
      "link": {
        "icon": "arrow_forward",
        "text": "Ver todas las tesis",
        "title": "Link",
        "url": "/cover-content"
      },
      "type_slug": "tesis_postgrado"
    },
    "horizon_trabajos": {
      "active": true,
      "title": "Trabajos de graduación",
      "excerpt": "Últimas publicaciones",
      "link": {
        "icon": "arrow_forward",
        "text": "Ver todos los trabajos",
        "title": "Link",
        "url": "/cover-content"
      },
      "type_slug": "trabajos_graduacion"
    },
    "section_help":{
      "active": false,
      "help": [
        {
          "excerpt": "",
          "image": "receipt_long",
          "link": {
            "icon": "open_in_new",
            "text": "",
            "title": "Link a Consulta nuestra guía",
            "url": "https://guiastematicas.bibliotecas.uc.cl/gdi_ip/inicio"
          },
          "title": "Consulta nuestra guía"
        },
        {
          "excerpt": "",
          "image": "cloud_upload",
          "link": {
            "icon": "open_in_new",
            "text": "",
            "title": "link a Cómo subir datos al Repositorio UC",
            "url": "https://guiastematicas.bibliotecas.uc.cl/gdi_ip/beneficios"
          },
          "title": "Cómo subir datos al Repositorio UC"
        },
        {
          "excerpt": "",
          "image": "checklist_rtl",
          "link": {
            "icon": "open_in_new",
            "text": "",
            "title": "link a Checklist para compartir datos",
            "url": "https://guiastematicas.bibliotecas.uc.cl/gdi_ip/checklist"
          },
          "title": "Checklist para compartir datos"
        }
      ]
    }
  }
}
