
  {
    "horizon_header": {
      "active": true,
      "title": "Noticias",
      "section_breadcrumbs": {
        "active": true,
        "breadcrumbs": [
          {
            "text": "Inicio",
            "title": "Ir a página de inicio del Repositorio",
            "url": "/"
          },
          {
            "text": "Novedades",
            "title": "Sección Novedades",
            "url": "/blog-list"
          },
          {
            "text": "Noticias",
            "title": "Te encuentras en la página Noticias",
            "url": "/blog-list"
          }
        ]
      },
      "section_excerpt": {
        "active": false,
        "excerpt": "Con el objetivo de potenciar su labor de investigación, preservación y difusión del conocimiento, la  Pontificia Universidad Católica de Chile ha puesto a disposición de toda la comunidad una serie de recursos en acceso abierto en distintas disciplinas."
      },
      "section_banner":{
        "active": false,
        "banner": [
          {
            "excerpt": "Apoyo de Bibliotecas UC para la Gestión de datos de investigación",
            "image": "assets/img/DI-beneficios.jpg",
            "link": {
              "icon": "open_in_new",
              "text": "Visitar web para más detalles",
              "title": "link a Beneficios para investigadores",
              "url": "https://guiastematicas.bibliotecas.uc.cl/gdi_ip/beneficios"
            },
            "title": "Beneficios para investigadores"
          }
        ]
      },
      "section_sidebar": {
        "active": false,
        "sidebar": [
          {
            "boton": "",
            "link": ""
          }
        ]
      }
    },
    "section_childs": {
      "active": true,
      "childs": [
        {
          "horizon_header": {
            "active": true,
            "title": "Más de 200 títulos de BioMed Central disponibles en acceso abierto",
            "excerpt": "Puedes acceder y descargar artículos de “autoría UC“ publicados por esta reconocida editorial científica. ",
            "image": "https://mcusercontent.com/43aecb2da99dc8cbbb106788c/_compresseds/9fe2f1cf-b884-4327-bba1-94838e42fe83.jpg",
            "tag": {
              "text": "Noticias",
              "title": "Sección Noticias",
              "url": "/blog-list"
            },
            "section_breadcrumbs": {
              "active": true,
              "breadcrumbs": [
                {
                  "text": "Inicio",
                  "title": "Ir a página de inicio del Repositorio",
                  "url": "/"
                },
                {
                  "text": "Noticias",
                  "title": "Sección Noticias",
                  "url": "/blog-list"
                },
                {
                  "text": "BioMed",
                  "title": "Te encuentras en página BioMed",
                  "url": "/blog/0"
                }
              ]
            },
            "link": {
              "icon": "",
              "text": "Seguir leyendo",
              "target": "_self"
            }
          },
          "horizon_contents": [
            {
              "active": true,
              "type": "text",
              "title": "",
              "content": "Un total de <strong>270 títulos</strong> producidos por investigadoras e investigadores de la UC para la editorial científica británica <strong>Biomed</strong> Central han sido incorporados al Repositorio UC."
            },
            {
              "active": true,
              "type": "text",
              "title": "",
              "content": "Los ítemes, que en su mayoría están en idioma inglés, abordan una amplia gama de investigaciones en el área de la salud como medicina cardiovascular, cirugía ortopédica, avances en psiquiatría y estudios sobre el cáncer, entre muchas otras temáticas."
            },
            {
              "active": true,
              "type": "text",
              "title": "",
              "content": "Todos los archivos están disponibles en <strong>acceso abierto</strong> y pueden ser descargados a distintos dispositivos en formato PDF. Para acceder revisar directamente los artículos de esta colección ingresar en el buscador del sitio “Biomed Central“."
            },
            {
              "active": true,
              "type": "image",
              "title": "",
              "content": "https://mcusercontent.com/43aecb2da99dc8cbbb106788c/_compresseds/9fe2f1cf-b884-4327-bba1-94838e42fe83.jpg"
            },
            {
              "active": true,
              "type": "quote_bordered",
              "title": "",
              "content": "Si tienes consultas sobre cómo acceder al material de nuestra plataforma o cómo puedes compartir tus publicaciones, escribe a <a href='mailto:repositorio@uc.cl'>repositorio@uc.cl</a>"
            },
            {
              "active": false,
              "type": "list_normal",
              "title": "Artículos más recientes:",
              "content": [
                {
                  "text": "Investigación y publicación"
                },
                {
                  "text": "Catalogación y metadatos"
                },
                {
                  "text": "Tecnología y desarrollo digital"
                },
                {
                  "text": "Experiencia de usuario"
                },
                {
                  "text": "Comunicaciones y marketing"
                }
              ]
            },
            {
              "active": false,
              "type": "quote",
              "title": "",
              "content": "La supervisión y política de la plataforma están en línea con lo dictado por la Pontificia Universidad Católica y la Vicerrectoría de Investigación UC."
            },
            {
              "active": false,
              "type": "video",
              "title": "",
              "content": "http://techslides.com/demos/sample-videos/small.mp4"
            },
            {
              "active": true,
              "type": "list_links",
              "title": "Artículos más recientes:",
              "content": [
                {
                  "icon": "open_in_new",
                  "text": "Anthropometry, dietary intake, physical activity and sitting time patterns in adolescents aged 15–17 years: an international comparison in eight Latin American countries",
                  "title": "Link",
                  "url": "https://repositorio.uc.cl/handle/11534/28454"
                },
                {
                  "icon": "open_in_new",
                  "text": "Reverse engineering directed gene regulatory networks from transcriptomics and proteomics data of biomining bacterial communities with approximate Bayesian computation and steady-state signalling simulations",
                  "title": "Link",
                  "url": "https://repositorio.uc.cl/handle/11534/28455"
                },
                {
                  "icon": "open_in_new",
                  "text": "Widespread loss of the silencing epigenetic mark H3K9me3 in astrocytes and neurons along with hippocampal-dependent cognitive impairment in C9orf72 BAC transgenic mice.",
                  "title": "Link",
                  "url": "https://repositorio.uc.cl/handle/11534/28487"
                },
                {
                  "icon": "open_in_new",
                  "text": "The drivers of child mortality during the 2012–2016 drought in La Guajira, Colombia.",
                  "title": "Link",
                  "url": "https://repositorio.uc.cl/handle/11534/28486"
                },
                {
                  "icon": "open_in_new",
                  "text": "Systematic assessment of fluid responsiveness during early septic shock resuscitation: secondary analysis of the ANDROMEDA-SHOCK trial",
                  "title": "Link",
                  "url": "https://repositorio.uc.cl/handle/11534/28327"
                },
                {
                  "icon": "open_in_new",
                  "text": "Gold nanoparticle based double-labeling of melanoma extracellular vesicles to determine the specificity of uptake by cells and preferential accumulation in small metastatic lung tumors",
                  "title": "Link",
                  "url": "https://repositorio.uc.cl/handle/11534/28328"
                }
              ]
            },
            {
              "active": false,
              "type": "table",
              "title": "",
              "content": {
                "columns": ["Hora", "Sección"],
                "rows": [
                  {
                    "hora": "9:00 - 9:30",
                    "seccion": "Lorem ipsum dolor sit amet, consectetur adipiscing elit."
                  },
                  {
                    "hora": "9:00 - 9:30",
                    "seccion": "Lorem ipsum dolor sit amet, consectetur adipiscing elit. Integer ut justo non eros convallis rhoncus. Nunc sit amet cursus felis. Aliquam ultricies lacus ut mollis placerat."
                  },
                  {
                    "hora": "9:00 - 9:30",
                    "seccion": "Lorem ipsum dolor sit amet, consectetur adipiscing elit."
                  },
                  {
                    "hora": "9:00 - 9:30",
                    "seccion": "Lorem ipsum dolor sit amet, consectetur adipiscing elit. Integer ut justo non eros convallis rhoncus. Nunc sit amet cursus felis. Aliquam ultricies lacus ut mollis placerat."
                  }
                ]
              }
            },
            {
              "active": false,
              "type": "map",
              "title": "Vista de mapa",
              "content": {
                "direccion": "Direccion",
                "lat": -33.4295733,
                "lon": -70.6211627
              }
            }
          ]
        },
        {
          "horizon_header": {
            "active": true,
            "title": "ORCID: La plataforma digital que apoya la investigación",
            "excerpt": "Crear un Perfil ORCID y vincularlo con el Repositorio UC fomenta la visibilidad de la producción académica y de investigación.",
            "image": "https://mcusercontent.com/43aecb2da99dc8cbbb106788c/images/d5fa5662-0cf2-4b38-83da-d889a0bffbc8.jpg",
            "tag": {
              "text": "Noticias",
              "title": "Sección Noticias",
              "url": "/blog-list"
            },
            "section_breadcrumbs": {
              "active": true,
              "breadcrumbs": [
                {
                  "text": "Inicio",
                  "title": "Ir a página de inicio del Repositorio",
                  "url": "/"
                },
                {
                  "text": "Noticias",
                  "title": "Sección Noticias",
                  "url": "/blog-list"
                },
                {
                  "text": "Orcid",
                  "title": "Te encuentras en página Orcid",
                  "url": "/blog/1"
                }
              ]
            },
            "link": {
              "icon": "",
              "text": "Seguir leyendo",
              "target": "_self"
            }
          },
          "horizon_contents": [
            {
              "active": true,
              "type": "text",
              "title": "",
              "content": "<a href='https://orcid.org/' target='_blank'>Open Researcher and Contributor ID (ORCID)</a> es una plataforma digital gratuita e internacional de acceso abierto que ofrece un sistema de registro central para toda la producción que los investigadores tengan en distintas bases de datos."
            },
            {
              "active": true,
              "type": "text",
              "title": "",
              "content": "A través de un <strong>número identificador de 16 dígitos</strong>, similar a un número de cédula de identidad o pasaporte, ORCID entrega una buena alternativa de <strong>“desambiguación” de nombres</strong> para el mundo científico y permite a los usuarios pertenecer a una amplia comunidad conformada por investigadores, universidades, laboratorios, organizaciones de investigación comercial, financiadores del área, editores, agencias, depósitos de datos y asociaciones de profesionales internacionales."
            },
            {
              "active": true,
              "type": "text",
              "title": "",
              "content": "El registro de los trabajos se agrupan en un <strong>“Perfil ORCID”</strong>, similar a un perfil de LinkedIn, que cada usuario puede actualizar con sus datos, actividades y producciones."
            },
            {
              "active": true,
              "type": "image",
              "title": "",
              "content": "https://mcusercontent.com/43aecb2da99dc8cbbb106788c/images/f4f821ee-c2cb-4a5d-9719-38808bea15c3.png"
            },
            {
              "active": true,
              "type": "quote_bordered",
              "title": "",
              "content": "Hoy en día la investigación no sólo está relacionada con la publicación de contenidos en revistas académicas, la adecuada identificación de la autoría en estas publicaciones es muy importante. Tener un perfil ORCID ayuda a que la producción de los académicos UC sea visible, esté unificada y que sus nombres estén fielmente identificados, explica sobre esta plataforma Paola Santander, quien coordina el área de investigación y publicación en Bibliotecas UC."
            },
            {
              "active": false,
              "type": "list_normal",
              "title": "",
              "content": [
                {
                  "text": "Investigación y publicación"
                },
                {
                  "text": "Catalogación y metadatos"
                },
                {
                  "text": "Tecnología y desarrollo digital"
                },
                {
                  "text": "Experiencia de usuario"
                },
                {
                  "text": "Comunicaciones y marketing"
                }
              ]
            },
            {
              "active": false,
              "type": "quote",
              "title": "",
              "content": "La supervisión y política de la plataforma están en línea con lo dictado por la Pontificia Universidad Católica y la Vicerrectoría de Investigación UC."
            },
            {
              "active": false,
              "type": "video",
              "title": "",
              "content": "http://techslides.com/demos/sample-videos/small.mp4"
            },
            {
              "active": true,
              "type": "image",
              "title": "",
              "content": "https://mcusercontent.com/43aecb2da99dc8cbbb106788c/images/007a14d5-75db-4de3-837e-aeed0c04f7e9.jpg"
            },
            {
              "active": true,
              "type": "text",
              "title": "Vinculación con Repositorio  ",
              "content": "La Pontificia Universidad Católica de Chile es la única institución en Chile que ha suscrito una asociación con ORCID."
            },
            {
              "active": true,
              "type": "text",
              "title": "",
              "content": "Esta alianza permite  que -previa autorización del usuario- toda la información que los usuarios ingresen a su perfil ORCID, sea visualizada también en el Repositorio UC, aumentando así la visibilización de los trabajos de nuestros investigadores y académicos."
            },
            {
              "active": true,
              "type": "text",
              "title": "",
              "content": "Para crear y/o vincular la cuenta ORCID con el Repositorio UC, <a href='https://servicios.bibliotecas.uc.cl/orcid/prod/' target='_blank'>ingresar aquí.</a>"
            },
            {
              "active": true,
              "type": "image",
              "title": "",
              "content": "https://mcusercontent.com/43aecb2da99dc8cbbb106788c/images/d5fa5662-0cf2-4b38-83da-d889a0bffbc8.jpg"
            },
            {
              "active": true,
              "type": "text",
              "title": "Apoyo de Bibliotecas UC",
              "content": "Las principales editoriales científico-académicas como <strong>Nature, Taylor & Francis o Wiley</strong>, los investigadores más connotados que lideran la producción en base de datos y las universidades más importantes del mundo, están en ORCID. En Chile, este perfil ya facilita los procesos de acreditación y postulación de proyectos en agencias financiadoras como <strong>Fondecyt</strong> y, es por eso, que la UC está incentivando su uso, solicitando incluso la creación de la cuenta para concursos de la <a href='https://investigacion.uc.cl/' target='_blank'>Vicerrectoría de Investigación.</a>"
            },
            {
              "active": true,
              "type": "text",
              "title": "",
              "content": "<strong>Bibliotecas UC</strong> ofrece apoyo para crear los perfiles, vincularlos al Repositorio UC y utilizar la plataforma de la manera más óptima. Durante todo el año se imparte el <strong>taller gratuito “Creación de Perfil para Investigador en ORCID</strong>” (disponible actualmente en formato online). <a href='https://guiastematicas.bibliotecas.uc.cl/aprende' target='_blank'>Más información aquí.</a>"
            },
            {
              "active": false,
              "type": "list_links",
              "title": "Otros repositorios",
              "content": [
                {
                  "icon": "open_in_new",
                  "text": "Apollo",
                  "title": "Link",
                  "url": "#"
                },
                {
                  "icon": "open_in_new",
                  "text": "Repositorio Universidad de Chile",
                  "title": "Link",
                  "url": "#"
                },
                {
                  "icon": "open_in_new",
                  "text": "Academia.edu",
                  "title": "Link",
                  "url": "#"
                },
                {
                  "icon": "open_in_new",
                  "text": "Link a otro sitio",
                  "title": "Link",
                  "url": "#"
                },
                {
                  "icon": "open_in_new",
                  "text": "Link del link a otro sitio",
                  "title": "Link",
                  "url": "#"
                },
                {
                  "icon": "open_in_new",
                  "text": "Link a otro sitio",
                  "title": "Link",
                  "url": "#"
                }
              ]
            },
            {
              "active": false,
              "type": "table",
              "title": "",
              "content": {
                "columns": ["Hora", "Sección"],
                "rows": [
                  {
                    "hora": "9:00 - 9:30",
                    "seccion": "Lorem ipsum dolor sit amet, consectetur adipiscing elit."
                  },
                  {
                    "hora": "9:00 - 9:30",
                    "seccion": "Lorem ipsum dolor sit amet, consectetur adipiscing elit. Integer ut justo non eros convallis rhoncus. Nunc sit amet cursus felis. Aliquam ultricies lacus ut mollis placerat."
                  },
                  {
                    "hora": "9:00 - 9:30",
                    "seccion": "Lorem ipsum dolor sit amet, consectetur adipiscing elit."
                  },
                  {
                    "hora": "9:00 - 9:30",
                    "seccion": "Lorem ipsum dolor sit amet, consectetur adipiscing elit. Integer ut justo non eros convallis rhoncus. Nunc sit amet cursus felis. Aliquam ultricies lacus ut mollis placerat."
                  }
                ]
              }
            },
            {
              "active": false,
              "type": "map",
              "title": "Vista de mapa",
              "content": {
                "direccion": "Direccion",
                "lat": -33.4295733,
                "lon": -70.6211627
              }
            }
          ]
        },
        {
          "horizon_header": {
            "active": true,
            "title": "¡Te damos la bienvenida al nuevo Repositorio UC!",
            "excerpt": "Buscando ofrecer la mejor plataforma de difusión y descubrimiento de la investigación desarrollada en la Universidad Católica, nuestro Repositorio UC ha renovado su interfaz y organización de contenidos.",
            "image": "https://mcusercontent.com/43aecb2da99dc8cbbb106788c/images/007a14d5-75db-4de3-837e-aeed0c04f7e9.jpg",
            "tag": {
              "text": "Noticias",
              "title": "Sección Noticias",
              "url": "/blog-list"
            },
            "section_breadcrumbs": {
              "active": true,
              "breadcrumbs": [
                {
                  "text": "Inicio",
                  "title": "Ir a página de inicio del Repositorio",
                  "url": "/"
                },
                {
                  "text": "Noticias",
                  "title": "Sección Noticias",
                  "url": "/blog-list"
                },
                {
                  "text": "Bienvenida",
                  "title": "Te encuentras en página Bienvenida",
                  "url": "/blog/2"
                }
              ]
            },
            "link": {
              "icon": "",
              "text": "Seguir leyendo",
              "target": "_self"
            }
          },
          "horizon_contents": [
            {
              "active": true,
              "type": "text",
              "title": "",
              "content": "Desde el año 2013, nuestra Universidad cuenta con el <strong>Repositorio UC</strong>, plataforma web que difunde y preserva la producción académica y de investigación UC a través de la disponibilización en acceso abierto del material generado por académicos/as, estudiantes e investigadores/as de nuestra casa de estudios."
            },
            {
              "active": true,
              "type": "image",
              "title": "",
              "content": "https://mcusercontent.com/43aecb2da99dc8cbbb106788c/_compresseds/f6beda80-1142-480a-8986-c375066403a8.jpg"
            },
            {
              "active": true,
              "type": "text",
              "title": "",
              "content": "Teniendo siempre en cuenta que los usuarios son la figura central de este proyecto, el año 2018 se inició un proyecto de rediseño del Repositorio UC que abordó temas de contenido, interfaz y user experience."
            },
            {
              "active": true,
              "type": "image",
              "title": "",
              "content": "https://mcusercontent.com/43aecb2da99dc8cbbb106788c/_compresseds/8927648b-4b32-4ece-9bda-9dc90b55ec35.jpg"
            },
            {
              "active": true,
              "type": "text",
              "title": "",
              "content": "El resultado de este trabajo, además de entregar importantes insights en torno a las necesidades de la comunidad académica y científica, tuvo como resultado la renovación de nuestra interfaz, permitiendo introducir mejoras y novedades en la plataforma:"
            },
            {
              "active": true,
              "type": "image",
              "title": "",
              "content": "https://mcusercontent.com/43aecb2da99dc8cbbb106788c/_compresseds/0d856164-ab00-4e89-acf0-8440585d6717.jpg"
            },
            {
              "active": false,
              "type": "image",
              "title": "",
              "content": "https://mcusercontent.com/43aecb2da99dc8cbbb106788c/images/f4f821ee-c2cb-4a5d-9719-38808bea15c3.png"
            },
            {
              "active": false,
              "type": "quote_bordered",
              "title": "",
              "content": "'Hoy en día la investigación no sólo está relacionada con la publicación de contenidos en revistas académicas, la adecuada identificación de la autoría en estas publicaciones es muy importante. Tener un perfil ORCID ayuda a que la producción de los académicos UC sea visible, esté unificada y que sus nombres estén fielmente identificados', explica sobre esta plataforma Paola Santander, quien coordina el área de investigación y publicación en Bibliotecas UC."
            },
            {
              "active": true,
              "type": "list_normal",
              "title": "",
              "content": [
                {
                  "text": "Diseño web responsivo que responde a los criterios de usabilidad y accesibilidad definidos por la Universidad Católica."
                },
                {
                  "text": "Mayor visibilidad a la funcionalidad que permite a los usuarios compartir de manera autónoma sus publicaciones."
                },
                {
                  "text": "Categorización de publicación según <strong>áreas temáticas</strong>, facilitando así la navegación y descubrimiento de información."
                },
                {
                  "text": "Elaboración de contenidos dinámicos; <strong>novedades</strong> sobre los distintos materiales publicados e información de apoyo a la investigación y publicación."
                },
                {
                  "text": "<strong>Newsletter</strong> y formulario de contacto para mantener la comunicación con los usuarios"
                }
              ]
            },
            {
              "active": true,
              "type": "quote",
              "title": "",
              "content": "En línea con los esfuerzos de la UC por posicionar la investigación como un bien que aporta a la comunidad nacional e internacional,  el Repositorio UC ha sido desarrollado por un equipo multidisciplinario del Sistema de Bibliotecas UC que ha estado detrás de las tareas de programación, poblamiento y soporte de la plataforma. <strong>Puedes contactar a nuestro equipo escribiendo a <a href='mailto:repositorio@uc.cl'>repositorio@uc.cl</a></strong>"
            },
            {
              "active": false,
              "type": "video",
              "title": "",
              "content": "http://techslides.com/demos/sample-videos/small.mp4"
            },
      
            {
              "active": true,
              "type": "image",
              "title": "",
              "content": "https://mcusercontent.com/43aecb2da99dc8cbbb106788c/_compresseds/82139f0b-aed4-48f1-b487-033e2d1f900e.jpg"
            },
            {
              "active": false,
              "type": "list_links",
              "title": "Otros repositorios",
              "content": [
                {
                  "icon": "open_in_new",
                  "text": "Apollo",
                  "title": "Link",
                  "url": "#"
                },
                {
                  "icon": "open_in_new",
                  "text": "Repositorio Universidad de Chile",
                  "title": "Link",
                  "url": "#"
                },
                {
                  "icon": "open_in_new",
                  "text": "Academia.edu",
                  "title": "Link",
                  "url": "#"
                },
                {
                  "icon": "open_in_new",
                  "text": "Link a otro sitio",
                  "title": "Link",
                  "url": "#"
                },
                {
                  "icon": "open_in_new",
                  "text": "Link del link a otro sitio",
                  "title": "Link",
                  "url": "#"
                },
                {
                  "icon": "open_in_new",
                  "text": "Link a otro sitio",
                  "title": "Link",
                  "url": "#"
                }
              ]
            },
            {
              "active": false,
              "type": "table",
              "title": "",
              "content": {
                "columns": ["Hora", "Sección"],
                "rows": [
                  {
                    "hora": "9:00 - 9:30",
                    "seccion": "Lorem ipsum dolor sit amet, consectetur adipiscing elit."
                  },
                  {
                    "hora": "9:00 - 9:30",
                    "seccion": "Lorem ipsum dolor sit amet, consectetur adipiscing elit. Integer ut justo non eros convallis rhoncus. Nunc sit amet cursus felis. Aliquam ultricies lacus ut mollis placerat."
                  },
                  {
                    "hora": "9:00 - 9:30",
                    "seccion": "Lorem ipsum dolor sit amet, consectetur adipiscing elit."
                  },
                  {
                    "hora": "9:00 - 9:30",
                    "seccion": "Lorem ipsum dolor sit amet, consectetur adipiscing elit. Integer ut justo non eros convallis rhoncus. Nunc sit amet cursus felis. Aliquam ultricies lacus ut mollis placerat."
                  }
                ]
              }
            },
            {
              "active": false,
              "type": "map",
              "title": "Vista de mapa",
              "content": {
                "direccion": "Direccion",
                "lat": -33.4295733,
                "lon": -70.6211627
              }
            }
          ]
        }
      ]
    },
    "section_help":{
      "active": false,
      "help": [
        {
          "excerpt": "",
          "image": "assets/img/DI-beneficios.jpg",
          "link": {
            "icon": "open_in_new",
            "text": "",
            "title": "Link a Consulta nuestra guía",
            "url": "https://guiastematicas.bibliotecas.uc.cl/gdi_ip/inicio"
          },
          "title": "Consulta nuestra guía"
        },
        {
          "excerpt": "",
          "image": "assets/img/DI-beneficios.jpg",
          "link": {
            "icon": "open_in_new",
            "text": "",
            "title": "link a Cómo subir datos al Repositorio UC",
            "url": "https://guiastematicas.bibliotecas.uc.cl/gdi_ip/beneficios"
          },
          "title": "Cómo subir datos al Repositorio UC"
        },
        {
          "excerpt": "",
          "image": "assets/img/DI-beneficios.jpg",
          "link": {
            "icon": "open_in_new",
            "text": "",
            "title": "link a Checklist para compartir datos",
            "url": "https://guiastematicas.bibliotecas.uc.cl/gdi_ip/checklist"
          },
          "title": "Checklist para compartir datos"
        }
      ]
    }
  }
