{
  "horizon_header": {
    "active": true,
    "title": "Licencia",
    "excerpt": "Quienes forman parte de la Comunidad UC pueden compartir aquí sus tesis, trabajos de graduación, libros, capítulos de libros y artículos. Todos estos documentos pueden incluir texto, sonido e imágenes.",
    "section_breadcrumbs": {
      "active": true,
      "breadcrumbs": [
        {
          "text": "Inicio",
          "title": "Inicio",
          "url": "/"
        },
        {
          "text": "Licencia",
          "title": "Licencia",
          "url": "/upload/subir-publicacion"
        }
      ]
    },
    "section_conditions": {
      "active": true,
      "text": "El documento debe cumplir con las siguientes condiciones:",
      "terms": ["Debe ser generado por un miembro de la Comunidad UC", "Debe ser generado durante su paso por la UC", "<a href='https://repositorio.uc.cl/page/autorizacion.htm' target='_black'>Debe autorizar la licencia de publicación </a> "]
    },
    "section_upload": {
      "active": false
    }
  },
  "horizon_documentos_proceso": {
    "active": true,
    "title": "Documentos en proceso",
    "content": {
      "columns": ["Título", "Sección", "Remitente email"],
      "rows": [
        {
          "titulo": "Lorem ipsum",
          "remitent": "maximiliano@gmail.com",
          "seccion": "Lorem ipsum dolor sit amet, consectetur adipiscing elit."
        },
        {
          "titulo": "Lorem ipsum",
          "remitent": "maximiliano@gmail.com",
          "seccion": "Lorem ipsum dolor sit amet, consectetur adipiscing elit."
        },
        {
          "titulo": "Lorem ipsum",
          "remitent": "maximiliano@gmail.com",
          "seccion": "Lorem ipsum dolor sit amet, consectetur adipiscing elit."
        }
      ]
    }
  },
  "horizon_tareas_pendientes": {
    "active": true,
    "title": "Mis Tareas pendientes",
    "content": {
      "columns": ["Título", "Sección", "Remitente email"],
      "rows": [
        {
          "titulo": "Lorem ipsum",
          "remitent": "maximiliano@gmail.com",
          "seccion": "Lorem ipsum dolor sit amet, consectetur adipiscing elit."
        },
        {
          "titulo": "Lorem ipsum",
          "remitent": "maximiliano@gmail.com",
          "seccion": "Lorem ipsum dolor sit amet, consectetur adipiscing elit."
        },
        {
          "titulo": "Lorem ipsum",
          "remitent": "maximiliano@gmail.com",
          "seccion": "Lorem ipsum dolor sit amet, consectetur adipiscing elit."
        }
      ]
    }
  },
  "horizon_forms": {
    "active": false,
    "buttons": {
      "save_changes": {
        "text": "Guardar cambios"
      },
      "save_next": {
        "text": "Guardar y siguiente"
      }
    },
    "content": [
      {
        "active": true,
        "title": "Describe tu Investigación",
        "sections": [
          {
            "active": true,
            "title": "Información de tu Investigación",
            "input_tematica": {
              "label": "Temática*",
              "name": "select_tematica",
              "small": "",
              "options": [
                {
                  "value": "",
                  "text": "Selecciona una opción"
                },
                {
                  "value": "t_1",
                  "text": "Temática 1"
                },
                {
                  "value": "t_2",
                  "text": "Temática 2"
                },
                {
                  "value": "t_3",
                  "text": "Temática 3"
                }
              ]
            },
            "input_importancia": {
              "label": "Importancia (opcional)",
              "name": "select_importancia",
              "small": "",
              "options": [
                {
                  "value": "",
                  "text": "Selecciona una opción"
                },
                {
                  "value": "t_1",
                  "text": "Muy importante"
                },
                {
                  "value": "t_2",
                  "text": "Importante"
                },
                {
                  "value": "t_3",
                  "text": "Poco importante"
                }
              ]
            },
            "input_titulo_investigacion": {
              "label": "Título de investigación",
              "name": "text_titulo_investigacion",
              "small": "",
              "placeholder": "Ingresa el título de la investigación"
            },
            "input_otros_titulos": {
              "label": "Otros títulos (opcional)",
              "name": "text_otros_titulos",
              "small": "",
              "placeholder": "Ingresa título"
            },
            "input_resumen": {
              "label": "Resumen",
              "name": "textarea_resumen",
              "small": "Se recomiendan 500 caracteres",
              "placeholder": "Ingresa un resumen de la investigación"
            },
            "input_fecha_publicacion": {
              "label": "Fecha de publicación",
              "name": "datepicker_publicacion",
              "small": "Indica la fecha de publicación del ítem",
              "placeholder": "Ingresa un resumen de la investigación"
            },
            "input_extension_obra": {
              "label": "Extensión de la obra",
              "name": "text_extension_obra",
              "small": "",
              "placeholder": "Indica extensión de la obra"
            }
          },
          {
            "active": false,
            "title": "Datos complementarios",
            "input_etiquetas": {
              "label": "Etiquetas (recomendado)",
              "name": "text_etiquetas",
              "small": "",
              "placeholder": "Ingresa los términos separados por comas"
            },
            "input_serie": {
              "label": "Serie (opcional)",
              "name": "text_serie",
              "small": "",
              "placeholder": "Nombre de la serie"
            },
            "input_numero_informe": {
              "label": "",
              "name": "text_numero_informe",
              "small": "",
              "placeholder": "Número informe"
            },
            "input_idioma": {
              "label": "Idioma*",
              "name": "select_idioma",
              "small": "",
              "options": [
                {
                  "value": "espanol",
                  "text": "Español"
                },
                {
                  "value": "ingles",
                  "text": "Ingles"
                },
                {
                  "value": "portugues",
                  "text": "Portugues"
                }
              ]
            },
            "input_tipo_material": {
              "label": "Tipo de material",
              "name": "select_material",
              "small": "",
              "options": [
                {
                  "value": "m1",
                  "text": "Material 1"
                },
                {
                  "value": "m2",
                  "text": "Material 2"
                }
              ]
            }
          },
          {
            "active": true,
            "title": "Archivos",
            "excerpt": "",
            "input_seleccionar_archivo": {
              "label": "Seleccionar archivo",
              "name": "file_upload",
              "small": ""
            },
            "input_tipo_acceso": {
              "label": "Tipo de acceso",
              "name": "select_tipo_acceso",
              "small": "",
              "options": [
                {
                  "value": "public",
                  "text": "Público"
                },
                {
                  "value": "restricted",
                  "text": "Restringido"
                },
                {
                  "value": "embarged",
                  "text": "Embargado"
                }
              ]
            },
            "input_descripcion_archivo": {
              "label": "Descripción del archivo (opcional)",
              "name": "textarea_descripcion_archivo",
              "small": "",
              "placeholder": "Si lo desea, puede describir brevemente el contenido de este archivo, por ejemplo 'Artículo principal', o 'Lectura de los datos del documento'"
            },
            "input_fecha_embargo": {
              "label": "Fecha de embargo",
              "name": "datepicker_fecha_embargo",
              "small": "Indica la fecha final del embargo si se trata de un ítem con embargo",
              "placeholder": "aaaa/mm/dd"
            }
          }
        ]
      },
      {
        "active": true,
        "title": "Subir Archivo ",
        "sections": [
          {
            "active": true,
            "title": "Sube tu archivo",
            "excerpt": "",
            "input_seleccionar_archivo": {
              "label": "Seleccionar archivo",
              "name": "file_upload",
              "small": ""
            },
            "input_tipo_acceso": {
              "label": "Tipo de acceso",
              "name": "select_tipo_acceso",
              "small": "",
              "options": [
                {
                  "value": "public",
                  "text": "Público"
                },
                {
                  "value": "restricted",
                  "text": "Restringido"
                },
                {
                  "value": "embarged",
                  "text": "Embargado"
                }
              ]
            },
            "input_descripcion_archivo": {
              "label": "Descripción del archivo (opcional)",
              "name": "textarea_descripcion_archivo",
              "small": "",
              "placeholder": "Si lo desea, puede describir brevemente el contenido de este archivo, por ejemplo 'Artículo principal', o 'Lectura de los datos del documento'"
            },
            "input_fecha_embargo": {
              "label": "Fecha de embargo",
              "name": "datepicker_fecha_embargo",
              "small": "Indica la fecha final del embargo si se trata de un ítem con embargo",
              "placeholder": "aaaa/mm/dd"
            }
          }
        ]
      },
      {
        "active": true,
        "title": "Licencia y envío"
      },
      {
        "active": true,
        "title": "Resultado de Envío"
      }
    ]
  }
}
