{
    "cajon-busqueda": {
        "name": "¿Qué estás buscando?",
        "texto-cajon-alt": "Ingresar búsqueda",
        "link-busqueda-avanzada": {
            "link": "#",
            "name": "Búsqueda avanzada"
        }
    },
    "cajon-auto-archivo": {
        "name": "Sube y comparte",
        "descripcion": "Tesis, proyectos de grado, artículos, capítulos de libros, libros completos, creaciones artísticas, patentes y <a href='enlaces/acerca-de-datos-investigacion'>datos de investigación</a> con archivos en distintos formatos que han sido generados o recopilados para una investigación.",
        "links": {
            "link": "enlaces/acerca-de-datos-investigacion",
            "name": "¿Quieres saber más sobre datos de investigación?",
            "ico": "pan_tool_alt"
        },
        "boton": {
            "link": "upload/form",
            "name-sesion": "Iniciar sesión UC",
            "name": "Subir y compartir"
        }
    },
    "cajon-di": {
        "name": "Comparte tus Datos de Investigación",
        "descripcion": "Archivos en distintos formatos que han sido generados o recopilados  para una investigación. <a class='link' href='enlaces/acerca-de-datos-investigacion'>Más información</a> ",
        "boton": {
            "link": "datos-investigacion",
            "name-sesion": "Iniciar sesión UC",
            "name": "Subir datos de investigación"
        }
    },
    "cajon-iniciar-sesion": {
        "link": "#",
        "name": "Iniciar Seción UC"
    }
}