{
  "entorno":{
    "php"                     :"http://repositorio.des.uc.cl/assets/php",
    "php_img"                 :"http://repositorio.des.uc.cl:8080", 
    "php_download"            :"https://repositorio.uc.cl",
    "php_upload"              :"https://repositorio.uc.cl",
    "php_ficha"               :"http://repositorio.des.uc.cl/assets/php/ficha.php?",
    "php_ultimos_agregados"   : "http://repositorio.des.uc.cl/assets/php/ultimos-agregados.php"
  }
}