{
  "horizon_villarrica": {
    "active": true,
    "title": "Campus Villarrica",
    "section_cards_big": {
      "active": true,
      "title": ""
    },
    "section_cards_medium": {
      "active": true,
      "title": ""
    },
    "section_cards_small": {
      "active": true,
      "title": ""
    }
  },
  "horizon_areas_tematicas": {
    "active": true,
    "title": "Áreas temáticas",
    "section_cards_big": {
      "active": true,
      "title": ""
    },
    "section_cards_medium": {
      "active": true,
      "title": ""
    },
    "section_cards_small": {
      "active": true,
      "title": ""
    }
  },
  "horizon_estudios_bibliometricos": {
    "active": true,
    "link": {
      "icon": "arrow_forward",
      "text": "Ir a informes bibliométricos",
      "title": "Link",
      "url": "/bibliometrics"
    },
    "title": "Informes bibliométricos"
  },
  "horizon_mis_actividades": {
    "active": true,
    "title": "Mis actividades",
    "section_left": {
      "active": true,
      "title": "Investigaciones por leer"
    },
    "section_right": {
      "active": true,
      "title": "Mis búsquedas anteriores"
    }
  },
  "horizon_mis_areas_tematicas": {
    "active": true,
    "title": "Mis áreas temáticas"
  },
  "horizon_novedades": {
    "active": true,
    "link": {
      "icon": "arrow_forward",
      "text": "Ver todas",
      "title": "Link",
      "url": "/enlaces/noticias"
    },
    "title": "Noticias",
    "section_slider": {
      "active": true,
      "title": ""
    },
    "section_suscription": {
      "active": true,
      "excerpt": "Ingresa tu correo electrónico y recibe actualizaciones sobre los últimos documentos agregados al Repositorio UC, noticias e información de interés para tus investigaciones.",
      "title": "Suscríbete a nuestro newsletter"
    }
  },
  "horizon_nuestros_numeros": {
    "active": true,
    "title": "Nuestros números",
    "section_boxes": {
      "active": true,
      "title": ""
    },
    "section_graphics": {
      "active": true,
      "title": ""
    }
  },
  "horizon_otras_areas_tematicas": {
    "active": true,
    "title": "Otras áreas temáticas",
    "section_cards_medium": {
      "active": true,
      "title": ""
    },
    "section_cards_small": {
      "active": true,
      "title": ""
    }
  }
}
