[
  {
    "ano": 2019,
    "studies": [
      {
        "excerpt": "Informe que declara las publicaciones citables de la UC -entre 2013-2017- extraídas en junio del 2019 de las bases de datos Web of Science y SciELO (WoS). Se consideran publicaciones citables aquellas de tipo article, review y proceedings paper, por tanto, contribuyen y tienen gran impacto en las disciplinas del conocimiento.",
        "link": {
          "icon": "get_app",
          "title": "Descargar publicaciones citables UC 2013-2017",
          "text": "Descargar",
          "url": "/assets/download/estudios/Copia de IB_Datos_Publicaciones citables UC 2013-2017.xlsx"
        },
        "title": "Publicaciones citables UC 2013-2017"
      },
      {
        "excerpt": "Informe que da cuenta de la colaboración entre la UC y University of Edinburgh -en el período 2013-2017- extraída en 2018 y analizada con la data de publicaciones de Scopus. Se identificaron indicadores de impacto de autores que presentan mayor productividad en colaboración, así también, aquellos que potencialmente pueden colaborar.",
        "link": {
          "icon": "get_app",
          "title": "Descargar Colaboración UC-Edinburg",
          "text": "Descargar",
          "url": "assets/download/estudios/Copia de IB_Datos_Publicaciones citables UC 2013-2017.xlsx"
        },
        "title": "Colaboración UC-Edinburg"
      },
      {
        "excerpt": "Informe que da cuenta del impacto y colaboración nacional e internacional de las publicaciones de la UC -entre 2011-2017- extraídas a fines del 2017 desde las bases de datos Web of Science (ISI) y la herramienta bibliométrica InCites.",
        "link": {
          "icon": "get_app",
          "title": "Descargar Publicaciones UC 2011-2017",
          "text": "Descargar",
          "url": "assets/download/estudios/Copia de IB_Datos_Publicaciones citables UC 2013-2017.xlsx"
        },
        "title": "Publicaciones UC 2011-2017"
      }
    ]
  },
  {
    "ano": 2018,
    "studies": [
      {
        "excerpt": "Lorem ipsum dolor sit amet, consectetuer adipiscing elit. Aenean commodo ligula eget dolor. Aenean massa",
        "link": {
          "icon": "get_app",
          "title": "File",
          "text": "Descargar",
          "url": "#"
        },
        "title": "Nombre del archivo"
      },
      {
        "excerpt": "Lorem ipsum dolor sit amet, consectetuer adipiscing elit. Aenean commodo ligula eget dolor. Aenean massa",
        "link": {
          "icon": "get_app",
          "title": "File",
          "text": "Descargar",
          "url": "#"
        },
        "title": "Nombre del archivo"
      },
      {
        "excerpt": "Lorem ipsum dolor sit amet, consectetuer adipiscing elit. Aenean commodo ligula eget dolor. Aenean massa",
        "link": {
          "icon": "get_app",
          "title": "File",
          "text": "Descargar",
          "url": "#"
        },
        "title": "Nombre del archivo"
      },
      {
        "excerpt": "Lorem ipsum dolor sit amet, consectetuer adipiscing elit. Aenean commodo ligula eget dolor. Aenean massa",
        "link": {
          "icon": "get_app",
          "title": "File",
          "text": "Descargar",
          "url": "#"
        },
        "title": "Nombre del archivo"
      },
      {
        "excerpt": "Lorem ipsum dolor sit amet, consectetuer adipiscing elit. Aenean commodo ligula eget dolor. Aenean massa",
        "link": {
          "icon": "get_app",
          "title": "File",
          "text": "Descargar",
          "url": "#"
        },
        "title": "Nombre del archivo"
      },
      {
        "excerpt": "Lorem ipsum dolor sit amet, consectetuer adipiscing elit. Aenean commodo ligula eget dolor. Aenean massa",
        "link": {
          "icon": "get_app",
          "title": "File",
          "text": "Descargar",
          "url": "#"
        },
        "title": "Nombre del archivo"
      },
      {
        "excerpt": "Lorem ipsum dolor sit amet, consectetuer adipiscing elit. Aenean commodo ligula eget dolor. Aenean massa",
        "link": {
          "icon": "get_app",
          "title": "File",
          "text": "Descargar",
          "url": "#"
        },
        "title": "Nombre del archivo"
      },
      {
        "excerpt": "Lorem ipsum dolor sit amet, consectetuer adipiscing elit. Aenean commodo ligula eget dolor. Aenean massa",
        "link": {
          "icon": "get_app",
          "title": "File",
          "text": "Descargar",
          "url": "#"
        },
        "title": "Nombre del archivo"
      }
    ]
  },
  {
    "ano": 2017,
    "studies": [
      {
        "excerpt": "Lorem ipsum dolor sit amet, consectetuer adipiscing elit. Aenean commodo ligula eget dolor. Aenean massa",
        "link": {
          "icon": "get_app",
          "title": "File",
          "text": "Descargar",
          "url": "#"
        },
        "title": "Nombre del archivo"
      },
      {
        "excerpt": "Lorem ipsum dolor sit amet, consectetuer adipiscing elit. Aenean commodo ligula eget dolor. Aenean massa",
        "link": {
          "icon": "get_app",
          "title": "File",
          "text": "Descargar",
          "url": "#"
        },
        "title": "Nombre del archivo"
      },
      {
        "excerpt": "Lorem ipsum dolor sit amet, consectetuer adipiscing elit. Aenean commodo ligula eget dolor. Aenean massa",
        "link": {
          "icon": "get_app",
          "title": "File",
          "text": "Descargar",
          "url": "#"
        },
        "title": "Nombre del archivo"
      },
      {
        "excerpt": "Lorem ipsum dolor sit amet, consectetuer adipiscing elit. Aenean commodo ligula eget dolor. Aenean massa",
        "link": {
          "icon": "get_app",
          "title": "File",
          "text": "Descargar",
          "url": "#"
        },
        "title": "Nombre del archivo"
      },
      {
        "excerpt": "Lorem ipsum dolor sit amet, consectetuer adipiscing elit. Aenean commodo ligula eget dolor. Aenean massa",
        "link": {
          "icon": "get_app",
          "title": "File",
          "text": "Descargar",
          "url": "#"
        },
        "title": "Nombre del archivo"
      },
      {
        "excerpt": "Lorem ipsum dolor sit amet, consectetuer adipiscing elit. Aenean commodo ligula eget dolor. Aenean massa",
        "link": {
          "icon": "get_app",
          "title": "File",
          "text": "Descargar",
          "url": "#"
        },
        "title": "Nombre del archivo"
      },
      {
        "excerpt": "Lorem ipsum dolor sit amet, consectetuer adipiscing elit. Aenean commodo ligula eget dolor. Aenean massa",
        "link": {
          "icon": "get_app",
          "title": "File",
          "text": "Descargar",
          "url": "#"
        },
        "title": "Nombre del archivo"
      },
      {
        "excerpt": "Lorem ipsum dolor sit amet, consectetuer adipiscing elit. Aenean commodo ligula eget dolor. Aenean massa",
        "link": {
          "icon": "get_app",
          "title": "File",
          "text": "Descargar",
          "url": "#"
        },
        "title": "Nombre del archivo"
      }
    ]
  },
  {
    "ano": 2016,
    "studies": [
      {
        "excerpt": "Lorem ipsum dolor sit amet, consectetuer adipiscing elit. Aenean commodo ligula eget dolor. Aenean massa",
        "link": {
          "icon": "get_app",
          "title": "File",
          "text": "Descargar",
          "url": "#"
        },
        "title": "Nombre del archivo"
      },
      {
        "excerpt": "Lorem ipsum dolor sit amet, consectetuer adipiscing elit. Aenean commodo ligula eget dolor. Aenean massa",
        "link": {
          "icon": "get_app",
          "title": "File",
          "text": "Descargar",
          "url": "#"
        },
        "title": "Nombre del archivo"
      },
      {
        "excerpt": "Lorem ipsum dolor sit amet, consectetuer adipiscing elit. Aenean commodo ligula eget dolor. Aenean massa",
        "link": {
          "icon": "get_app",
          "title": "File",
          "text": "Descargar",
          "url": "#"
        },
        "title": "Nombre del archivo"
      },
      {
        "excerpt": "Lorem ipsum dolor sit amet, consectetuer adipiscing elit. Aenean commodo ligula eget dolor. Aenean massa",
        "link": {
          "icon": "get_app",
          "title": "File",
          "text": "Descargar",
          "url": "#"
        },
        "title": "Nombre del archivo"
      },
      {
        "excerpt": "Lorem ipsum dolor sit amet, consectetuer adipiscing elit. Aenean commodo ligula eget dolor. Aenean massa",
        "link": {
          "icon": "get_app",
          "title": "File",
          "text": "Descargar",
          "url": "#"
        },
        "title": "Nombre del archivo"
      },
      {
        "excerpt": "Lorem ipsum dolor sit amet, consectetuer adipiscing elit. Aenean commodo ligula eget dolor. Aenean massa",
        "link": {
          "icon": "get_app",
          "title": "File",
          "text": "Descargar",
          "url": "#"
        },
        "title": "Nombre del archivo"
      },
      {
        "excerpt": "Lorem ipsum dolor sit amet, consectetuer adipiscing elit. Aenean commodo ligula eget dolor. Aenean massa",
        "link": {
          "icon": "get_app",
          "title": "File",
          "text": "Descargar",
          "url": "#"
        },
        "title": "Nombre del archivo"
      },
      {
        "excerpt": "Lorem ipsum dolor sit amet, consectetuer adipiscing elit. Aenean commodo ligula eget dolor. Aenean massa",
        "link": {
          "icon": "get_app",
          "title": "File",
          "text": "Descargar",
          "url": "#"
        },
        "title": "Nombre del archivo"
      }
    ]
  },
  {
    "ano": 2015,
    "studies": [
      {
        "excerpt": "Lorem ipsum dolor sit amet, consectetuer adipiscing elit. Aenean commodo ligula eget dolor. Aenean massa",
        "link": {
          "icon": "get_app",
          "title": "File",
          "text": "Descargar",
          "url": "#"
        },
        "title": "Nombre del archivo"
      },
      {
        "excerpt": "Lorem ipsum dolor sit amet, consectetuer adipiscing elit. Aenean commodo ligula eget dolor. Aenean massa",
        "link": {
          "icon": "get_app",
          "title": "File",
          "text": "Descargar",
          "url": "#"
        },
        "title": "Nombre del archivo"
      },
      {
        "excerpt": "Lorem ipsum dolor sit amet, consectetuer adipiscing elit. Aenean commodo ligula eget dolor. Aenean massa",
        "link": {
          "icon": "get_app",
          "title": "File",
          "text": "Descargar",
          "url": "#"
        },
        "title": "Nombre del archivo"
      },
      {
        "excerpt": "Lorem ipsum dolor sit amet, consectetuer adipiscing elit. Aenean commodo ligula eget dolor. Aenean massa",
        "link": {
          "icon": "get_app",
          "title": "File",
          "text": "Descargar",
          "url": "#"
        },
        "title": "Nombre del archivo"
      },
      {
        "excerpt": "Lorem ipsum dolor sit amet, consectetuer adipiscing elit. Aenean commodo ligula eget dolor. Aenean massa",
        "link": {
          "icon": "get_app",
          "title": "File",
          "text": "Descargar",
          "url": "#"
        },
        "title": "Nombre del archivo"
      },
      {
        "excerpt": "Lorem ipsum dolor sit amet, consectetuer adipiscing elit. Aenean commodo ligula eget dolor. Aenean massa",
        "link": {
          "icon": "get_app",
          "title": "File",
          "text": "Descargar",
          "url": "#"
        },
        "title": "Nombre del archivo"
      },
      {
        "excerpt": "Lorem ipsum dolor sit amet, consectetuer adipiscing elit. Aenean commodo ligula eget dolor. Aenean massa",
        "link": {
          "icon": "get_app",
          "title": "File",
          "text": "Descargar",
          "url": "#"
        },
        "title": "Nombre del archivo"
      },
      {
        "excerpt": "Lorem ipsum dolor sit amet, consectetuer adipiscing elit. Aenean commodo ligula eget dolor. Aenean massa",
        "link": {
          "icon": "get_app",
          "title": "File",
          "text": "Descargar",
          "url": "#"
        },
        "title": "Nombre del archivo"
      }
    ]
  }
]
