{
  "identidad": {

  },
  "mapa": [
    {
      "order": 0,
      "titulo": "TESIS",
      "items": [
        {
          "text": "Tesis",
          "title": "Tesis",
          "url": "#"
        },
        {
          "text": "Trabajos de graduación",
          "title": "Trabajos de graduación",
          "url": "#"
        }
      ]
    },
    {
      "order": 1,
      "titulo": "PUBLICACIONES",
      "items": [
        {
          "text": "Artículos académicos",
          "title": "Artículos académicos",
          "url": "#"
        },
        {
          "text": "Capítulos de libros",
          "title": "Capítulos de libros",
          "url": "#"
        },
        {
          "text": "Libros",
          "title": "Libros",
          "url": "#"
        },
        {
          "text": "Documentos de trabajo",
          "title": "Documentos de trabajo",
          "url": "#"
        },
        {
          "text": "Presentaciones a Congresos",
          "title": "Presentaciones a Congresos",
          "url": "#"
        },
        {
          "text": "Obras artísticas",
          "title": "Obras artísticas",
          "url": "#"
        },
        {
          "text": "Otros",
          "title": "Otros",
          "url": "#"
        }
      ]
    },
    {
      "order": 2,
      "titulo": "DATOS DE INVESTIGACIÓN",
      "items": [
        {
          "text": "Documentales Obras Artísticas",
          "title": "Documentales Obras Artísticas",
          "url": "#"
        },
        {
          "text": "BBDD",
          "title": "BBDD",
          "url": "#"
        },
        {
          "text": "Multimedia",
          "title": "Multimedia",
          "url": "#"
        },
        {
          "text": "Otros datos",
          "title": "Otros datos",
          "url": "#"
        }
      ]
    },
    {
      "order": 3,
      "titulo": "PATENTES Y OTROS",
      "items": [
        {
          "text": "Documentos de trabajo",
          "title": "Documentos de trabajo",
          "url": "#"
        },
        {
          "text": "Trabajos de graduación",
          "title": "Trabajos de graduación",
          "url": "#"
        }
      ]
    },
    {
      "order": 4,
      "titulo": "ENLACES Y RECURSOS",
      "items": [
        {
          "text": "Otros repositorios",
          "title": "Otros repositorios",
          "url": "#"
        },
        {
          "text": "Recursos UC",
          "title": "Recursos UC",
          "url": "#"
        },
        {
          "text": "Patentes UC",
          "title": "Patentes UC",
          "url": "#"
        }
      ]
    },
    {
      "order": 5,
      "titulo": "NOVEDADES",
      "items": [
        {
          "text": "Subidos recientemente",
          "title": "Subidos recientemente",
          "url": "#"
        },
        {
          "text": "Más descargados",
          "title": "Más descargados",
          "url": "#"
        },
        {
          "text": "Destacados",
          "title": "Destacados",
          "url": "#"
        }
      ]
    },
    {
      "order": 6,
      "titulo": "QUÉ ES JERÓNIMO",
      "items": [
        {
          "text": "Políticas de acceso abierto",
          "title": "Políticas de acceso abierto",
          "url": "#"
        },
        {
          "text": "Quiénes somos",
          "title": "Quiénes somos",
          "url": "#"
        },
        {
          "text": "Nuestro equipo",
          "title": "Nuestro equipo",
          "url": "#"
        },
        {
          "text": "Políticas de privacidad",
          "title": "Políticas de privacidad",
          "url": "#"
        },
        {
          "text": "Condiciones de uso",
          "title": "Condiciones de uso",
          "url": "#"
        },
        {
          "text": "Contacto",
          "title": "Contacto",
          "url": "#"
        }
      ]
    }
  ]
}
